linux-kernel/tests/.Xil/Vivado-2772-CeRICT-RECIPE-0/hw_ila_data_1/zip_work/waveform.vcd
$date
        2019-Dec-03 16:42:53
$end
$version
        Vivado v2019.1.3 (64-bit)
$end
$timescale
        1ps
$end
$scope module dut $end
$var reg 32 " pcie/design_1_i/myip_0_slv_reg0 [31:0] $end
$var reg 32 B pcie/design_1_i/myip_0_slv_reg1 [31:0] $end
$var reg 32 b pcie/design_1_i/to_slv_reg2_0_1 [31:0] $end
$var reg 32 $" pcie/design_1_i/to_slv_reg3_0_1 [31:0] $end
$var reg 1 D" _TRIGGER $end
$var reg 1 E" _WINDOW $end
$var reg 1 F" _GAP $end
$upscope $end
$enddefinitions $end
#0
$dumpvars
b1010000000000000001 "
b1 B
b10000000000000001 b
b1110000 $"
0D"
1E"
0F"
$end
#2
b0 $"
#3
b1110000 $"
#5
b1100000 $"
#6
b1110000 $"
#8
b1100000 $"
#9
b1110000 $"
#10
b10000 $"
#11
b1110000 $"
#12
b1100000 $"
#13
b1110000 $"
#15
b1100000 $"
#16
b1110000 $"
#18
b0 $"
#19
b1110000 $"
#21
b1100000 $"
#22
b1110000 $"
#24
b1100000 $"
#25
b1110000 $"
#26
b10000 $"
#27
b1110000 $"
#28
b1100000 $"
#29
b1110000 $"
#31
b1100000 $"
#32
b1110000 $"
#34
b0 $"
#35
b1110000 $"
#37
b1100000 $"
#38
b1110000 $"
#40
b1100000 $"
#41
b1110000 $"
#42
b10000 $"
#43
b1110000 $"
#44
b1100000 $"
#45
b1110000 $"
#47
b1100000 $"
#48
b1110000 $"
#50
b0 $"
#51
b1110000 $"
#53
b1100000 $"
#54
b1110000 $"
#56
b1100000 $"
#57
b1110000 $"
#58
b10000 $"
#59
b1110000 $"
#60
b1100000 $"
#61
b1110000 $"
#63
b1100000 $"
#64
b1110000 $"
#66
b0 $"
#67
b1110000 $"
#69
b1100000 $"
#70
b1110000 $"
#72
b1100000 $"
#73
b1110000 $"
#74
b10000 $"
#75
b1110000 $"
#76
b1100000 $"
#77
b1110000 $"
#79
b1100000 $"
#80
b1110000 $"
#82
b0 $"
#83
b1110000 $"
#85
b1100000 $"
#86
b1110000 $"
#88
b1100000 $"
#89
b1110000 $"
#90
b10000 $"
#91
b1110000 $"
#92
b1100000 $"
#93
b1110000 $"
#95
b1100000 $"
#96
b1110000 $"
#98
b0 $"
#99
b1110000 $"
#101
b1100000 $"
#102
b1110000 $"
#104
b1100000 $"
#105
b1110000 $"
#106
b10000 $"
#107
b1110000 $"
#108
b1100000 $"
#109
b1110000 $"
#111
b1100000 $"
#112
b1110000 $"
#114
b0 $"
#115
b1110000 $"
#117
b1100000 $"
#118
b1110000 $"
#120
b1100000 $"
#121
b1110000 $"
#122
b10000 $"
#123
b1110000 $"
#124
b1100000 $"
#125
b1110000 $"
#127
b1100000 $"
#128
b1110000 $"
#130
b0 $"
#131
b1110000 $"
#133
b1100000 $"
#134
b1110000 $"
#136
b1100000 $"
#137
b1110000 $"
#138
b10000 $"
#139
b1110000 $"
#140
b1100000 $"
#141
b1110000 $"
#143
b1100000 $"
#144
b1110000 $"
#146
b0 $"
#147
b1110000 $"
#149
b1100000 $"
#150
b1110000 $"
#152
b1100000 $"
#153
b1110000 $"
#154
b10000 $"
#155
b1110000 $"
#156
b1100000 $"
#157
b1110000 $"
#159
b1100000 $"
#160
b1110000 $"
#162
b0 $"
#163
b1110000 $"
#165
b1100000 $"
#166
b1110000 $"
#168
b1100000 $"
#169
b1110000 $"
#170
b10000 $"
#171
b1110000 $"
#172
b1100000 $"
#173
b1110000 $"
#175
b1100000 $"
#176
b1110000 $"
#178
b0 $"
#179
b1110000 $"
#181
b1100000 $"
#182
b1110000 $"
#184
b1100000 $"
#185
b1110000 $"
#186
b10000 $"
#187
b1110000 $"
#188
b1100000 $"
#189
b1110000 $"
#191
b1100000 $"
#192
b1110000 $"
#194
b0 $"
#195
b1110000 $"
#197
b1100000 $"
#198
b1110000 $"
#200
b1100000 $"
#201
b1110000 $"
#202
b10000 $"
#203
b1110000 $"
#204
b1100000 $"
#205
b1110000 $"
#207
b1100000 $"
#208
b1110000 $"
#210
b0 $"
#211
b1110000 $"
#213
b1100000 $"
#214
b1110000 $"
#216
b1100000 $"
#217
b1110000 $"
#218
b10000 $"
#219
b1110000 $"
#220
b1100000 $"
#221
b1110000 $"
#223
b1100000 $"
#224
b1110000 $"
#226
b0 $"
#227
b1110000 $"
#229
b1100000 $"
#230
b1110000 $"
#232
b1100000 $"
#233
b1110000 $"
#234
b10000 $"
#235
b1110000 $"
#236
b1100000 $"
#237
b1110000 $"
#239
b1100000 $"
#240
b1110000 $"
#242
b0 $"
#243
b1110000 $"
#245
b1100000 $"
#246
b1110000 $"
#248
b1100000 $"
#249
b1110000 $"
#250
b10000 $"
#251
b1110000 $"
#252
b1100000 $"
#253
b1110000 $"
#255
b1100000 $"
#256
b1110000 $"
#258
b0 $"
#259
b1110000 $"
#261
b1100000 $"
#262
b1110000 $"
#264
b1100000 $"
#265
b1110000 $"
#266
b10000 $"
#267
b1110000 $"
#268
b1100000 $"
#269
b1110000 $"
#271
b1100000 $"
#272
b1110000 $"
#274
b0 $"
#275
b1110000 $"
#277
b1100000 $"
#278
b1110000 $"
#280
b1100000 $"
#281
b1110000 $"
#282
b10000 $"
#283
b1110000 $"
#284
b1100000 $"
#285
b1110000 $"
#287
b1100000 $"
#288
b1110000 $"
#290
b0 $"
#291
b1110000 $"
#293
b1100000 $"
#294
b1110000 $"
#296
b1100000 $"
#297
b1110000 $"
#298
b10000 $"
#299
b1110000 $"
#300
b1100000 $"
#301
b1110000 $"
#303
b1100000 $"
#304
b1110000 $"
#306
b0 $"
#307
b1110000 $"
#309
b1100000 $"
#310
b1110000 $"
#312
b1100000 $"
#313
b1110000 $"
#314
b10000 $"
#315
b1110000 $"
#316
b1100000 $"
#317
b1110000 $"
#319
b1100000 $"
#320
b1110000 $"
#322
b0 $"
#323
b1110000 $"
#325
b1100000 $"
#326
b1110000 $"
#328
b1100000 $"
#329
b1110000 $"
#330
b10000 $"
#331
b1110000 $"
#332
b1100000 $"
#333
b1110000 $"
#335
b1100000 $"
#336
b1110000 $"
#338
b0 $"
#339
b1110000 $"
#341
b1100000 $"
#342
b1110000 $"
#344
b1100000 $"
#345
b1110000 $"
#346
b10000 $"
#347
b1110000 $"
#348
b1100000 $"
#349
b1110000 $"
#351
b1100000 $"
#352
b1110000 $"
#354
b0 $"
#355
b1110000 $"
#357
b1100000 $"
#358
b1110000 $"
#360
b1100000 $"
#361
b1110000 $"
#362
b10000 $"
#363
b1110000 $"
#364
b1100000 $"
#365
b1110000 $"
#367
b1100000 $"
#368
b1110000 $"
#370
b0 $"
#371
b1110000 $"
#373
b1100000 $"
#374
b1110000 $"
#376
b1100000 $"
#377
b1110000 $"
#378
b10000 $"
#379
b1110000 $"
#380
b1100000 $"
#381
b1110000 $"
#383
b1100000 $"
#384
b1110000 $"
#386
b0 $"
#387
b1110000 $"
#389
b1100000 $"
#390
b1110000 $"
#392
b1100000 $"
#393
b1110000 $"
#394
b10000 $"
#395
b1110000 $"
#396
b1100000 $"
#397
b1110000 $"
#399
b1100000 $"
#400
b1110000 $"
#402
b0 $"
#403
b1110000 $"
#405
b1100000 $"
#406
b1110000 $"
#408
b1100000 $"
#409
b1110000 $"
#410
b10000 $"
#411
b1110000 $"
#412
b1100000 $"
#413
b1110000 $"
#415
b1100000 $"
#416
b1110000 $"
#418
b0 $"
#419
b1110000 $"
#421
b1100000 $"
#422
b1110000 $"
#424
b1100000 $"
#425
b1110000 $"
#426
b10000 $"
#427
b1110000 $"
#428
b1100000 $"
#429
b1110000 $"
#431
b1100000 $"
#432
b1110000 $"
#434
b0 $"
#435
b1110000 $"
#437
b1100000 $"
#438
b1110000 $"
#440
b1100000 $"
#441
b1110000 $"
#442
b10000 $"
#443
b1110000 $"
#444
b1100000 $"
#445
b1110000 $"
#447
b1100000 $"
#448
b1110000 $"
#450
b0 $"
#451
b1110000 $"
#453
b1100000 $"
#454
b1110000 $"
#456
b1100000 $"
#457
b1110000 $"
#458
b10000 $"
#459
b1110000 $"
#460
b1100000 $"
#461
b1110000 $"
#463
b1100000 $"
#464
b1110000 $"
#466
b0 $"
#467
b1110000 $"
#469
b1100000 $"
#470
b1110000 $"
#472
b1100000 $"
#473
b1110000 $"
#474
b10000 $"
#475
b1110000 $"
#476
b1100000 $"
#477
b1110000 $"
#479
b1100000 $"
#480
b1110000 $"
#482
b0 $"
#483
b1110000 $"
#485
b1100000 $"
#486
b1110000 $"
#488
b1100000 $"
#489
b1110000 $"
#490
b10000 $"
#491
b1110000 $"
#492
b1100000 $"
#493
b1110000 $"
#495
b1100000 $"
#496
b1110000 $"
#498
b0 $"
#499
b1110000 $"
#501
b1100000 $"
#502
b1110000 $"
#504
b1100000 $"
#505
b1110000 $"
#506
b10000 $"
#507
b1110000 $"
#508
b1100000 $"
#509
b1110000 $"
#511
b1100000 $"
#512
b1110000 $"
1D"
#514
b0 $"
#515
b1110000 $"
#517
b1100000 $"
#518
b1110000 $"
#520
b1100000 $"
#521
b1110000 $"
#522
b10000 $"
#523
b1110000 $"
#524
b1100000 $"
#525
b1110000 $"
#527
b1100000 $"
#528
b1110000 $"
#530
b0 $"
#531
b1110000 $"
#533
b1100000 $"
#534
b1110000 $"
#536
b1100000 $"
#537
b1110000 $"
#538
b10000 $"
#539
b1110000 $"
#540
b1100000 $"
#541
b1110000 $"
#543
b1100000 $"
#544
b1110000 $"
#546
b0 $"
#547
b1110000 $"
#549
b1100000 $"
#550
b1110000 $"
#552
b1100000 $"
#553
b1110000 $"
#554
b10000 $"
#555
b1110000 $"
#556
b1100000 $"
#557
b1110000 $"
#559
b1100000 $"
#560
b1110000 $"
#562
b0 $"
#563
b1110000 $"
#565
b1100000 $"
#566
b1110000 $"
#568
b1100000 $"
#569
b1110000 $"
#570
b10000 $"
#571
b1110000 $"
#572
b1100000 $"
#573
b1110000 $"
#575
b1100000 $"
#576
b1110000 $"
#578
b0 $"
#579
b1110000 $"
#581
b1100000 $"
#582
b1110000 $"
#584
b1100000 $"
#585
b1110000 $"
#586
b10000 $"
#587
b1110000 $"
#588
b1100000 $"
#589
b1110000 $"
#591
b1100000 $"
#592
b1110000 $"
#594
b0 $"
#595
b1110000 $"
#597
b1100000 $"
#598
b1110000 $"
#600
b1100000 $"
#601
b1110000 $"
#602
b10000 $"
#603
b1110000 $"
#604
b1100000 $"
#605
b1110000 $"
#607
b1100000 $"
#608
b1110000 $"
#610
b0 $"
#611
b1110000 $"
#613
b1100000 $"
#614
b1110000 $"
#616
b1100000 $"
#617
b1110000 $"
#618
b10000 $"
#619
b1110000 $"
#620
b1100000 $"
#621
b1110000 $"
#623
b1100000 $"
#624
b1110000 $"
#626
b0 $"
#627
b1110000 $"
#629
b1100000 $"
#630
b1110000 $"
#632
b1100000 $"
#633
b1110000 $"
#634
b10000 $"
#635
b1110000 $"
#636
b1100000 $"
#637
b1110000 $"
#639
b1100000 $"
#640
b1110000 $"
#642
b0 $"
#643
b1110000 $"
#645
b1100000 $"
#646
b1110000 $"
#648
b1100000 $"
#649
b1110000 $"
#650
b10000 $"
#651
b1110000 $"
#652
b1100000 $"
#653
b1110000 $"
#655
b1100000 $"
#656
b1110000 $"
#658
b0 $"
#659
b1110000 $"
#661
b1100000 $"
#662
b1110000 $"
#664
b1100000 $"
#665
b1110000 $"
#666
b10000 $"
#667
b1110000 $"
#668
b1100000 $"
#669
b1110000 $"
#671
b1100000 $"
#672
b1110000 $"
#674
b0 $"
#675
b1110000 $"
#677
b1100000 $"
#678
b1110000 $"
#680
b1100000 $"
#681
b1110000 $"
#682
b10000 $"
#683
b1110000 $"
#684
b1100000 $"
#685
b1110000 $"
#687
b1100000 $"
#688
b1110000 $"
#690
b0 $"
#691
b1110000 $"
#693
b1100000 $"
#694
b1110000 $"
#696
b1100000 $"
#697
b1110000 $"
#698
b10000 $"
#699
b1110000 $"
#700
b1100000 $"
#701
b1110000 $"
#703
b1100000 $"
#704
b1110000 $"
#706
b0 $"
#707
b1110000 $"
#709
b1100000 $"
#710
b1110000 $"
#712
b1100000 $"
#713
b1110000 $"
#714
b10000 $"
#715
b1110000 $"
#716
b1100000 $"
#717
b1110000 $"
#719
b1100000 $"
#720
b1110000 $"
#722
b0 $"
#723
b1110000 $"
#725
b1100000 $"
#726
b1110000 $"
#728
b1100000 $"
#729
b1110000 $"
#730
b10000 $"
#731
b1110000 $"
#732
b1100000 $"
#733
b1110000 $"
#735
b1100000 $"
#736
b1110000 $"
#738
b0 $"
#739
b1110000 $"
#741
b1100000 $"
#742
b1110000 $"
#744
b1100000 $"
#745
b1110000 $"
#746
b10000 $"
#747
b1110000 $"
#748
b1100000 $"
#749
b1110000 $"
#751
b1100000 $"
#752
b1110000 $"
#754
b0 $"
#755
b1110000 $"
#757
b1100000 $"
#758
b1110000 $"
#760
b1100000 $"
#761
b1110000 $"
#762
b10000 $"
#763
b1110000 $"
#764
b1100000 $"
#765
b1110000 $"
#767
b1100000 $"
#768
b1110000 $"
#770
b0 $"
#771
b1110000 $"
#773
b1100000 $"
#774
b1110000 $"
#776
b1100000 $"
#777
b1110000 $"
#778
b10000 $"
#779
b1110000 $"
#780
b1100000 $"
#781
b1110000 $"
#783
b1100000 $"
#784
b1110000 $"
#786
b0 $"
#787
b1110000 $"
#789
b1100000 $"
#790
b1110000 $"
#792
b1100000 $"
#793
b1110000 $"
#794
b10000 $"
#795
b1110000 $"
#796
b1100000 $"
#797
b1110000 $"
#799
b1100000 $"
#800
b1110000 $"
#802
b0 $"
#803
b1110000 $"
#805
b1100000 $"
#806
b1110000 $"
#808
b1100000 $"
#809
b1110000 $"
#810
b10000 $"
#811
b1110000 $"
#812
b1100000 $"
#813
b1110000 $"
#815
b1100000 $"
#816
b1110000 $"
#818
b0 $"
#819
b1110000 $"
#821
b1100000 $"
#822
b1110000 $"
#824
b1100000 $"
#825
b1110000 $"
#826
b10000 $"
#827
b1110000 $"
#828
b1100000 $"
#829
b1110000 $"
#831
b1100000 $"
#832
b1110000 $"
#834
b0 $"
#835
b1110000 $"
#837
b1100000 $"
#838
b1110000 $"
#840
b1100000 $"
#841
b1110000 $"
#842
b10000 $"
#843
b1110000 $"
#844
b1100000 $"
#845
b1110000 $"
#847
b1100000 $"
#848
b1110000 $"
#850
b0 $"
#851
b1110000 $"
#853
b1100000 $"
#854
b1110000 $"
#856
b1100000 $"
#857
b1110000 $"
#858
b10000 $"
#859
b1110000 $"
#860
b1100000 $"
#861
b1110000 $"
#863
b1100000 $"
#864
b1110000 $"
#866
b0 $"
#867
b1110000 $"
#869
b1100000 $"
#870
b1110000 $"
#872
b1100000 $"
#873
b1110000 $"
#874
b10000 $"
#875
b1110000 $"
#876
b1100000 $"
#877
b1110000 $"
#879
b1100000 $"
#880
b1110000 $"
#882
b0 $"
#883
b1110000 $"
#885
b1100000 $"
#886
b1110000 $"
#888
b1100000 $"
#889
b1110000 $"
#890
b10000 $"
#891
b1110000 $"
#892
b1100000 $"
#893
b1110000 $"
#895
b1100000 $"
#896
b1110000 $"
#898
b0 $"
#899
b1110000 $"
#901
b1100000 $"
#902
b1110000 $"
#904
b1100000 $"
#905
b1110000 $"
#906
b10000 $"
#907
b1110000 $"
#908
b1100000 $"
#909
b1110000 $"
#911
b1100000 $"
#912
b1110000 $"
#914
b0 $"
#915
b1110000 $"
#917
b1100000 $"
#918
b1110000 $"
#920
b1100000 $"
#921
b1110000 $"
#922
b10000 $"
#923
b1110000 $"
#924
b1100000 $"
#925
b1110000 $"
#927
b1100000 $"
#928
b1110000 $"
#930
b0 $"
#931
b1110000 $"
#933
b1100000 $"
#934
b1110000 $"
#936
b1100000 $"
#937
b1110000 $"
#938
b10000 $"
#939
b1110000 $"
#940
b1100000 $"
#941
b1110000 $"
#943
b1100000 $"
#944
b1110000 $"
#946
b0 $"
#947
b1110000 $"
#949
b1100000 $"
#950
b1110000 $"
#952
b1100000 $"
#953
b1110000 $"
#954
b10000 $"
#955
b1110000 $"
#956
b1100000 $"
#957
b1110000 $"
#959
b1100000 $"
#960
b1110000 $"
#962
b0 $"
#963
b1110000 $"
#965
b1100000 $"
#966
b1110000 $"
#968
b1100000 $"
#969
b1110000 $"
#970
b10000 $"
#971
b1110000 $"
#972
b1100000 $"
#973
b1110000 $"
#975
b1100000 $"
#976
b1110000 $"
#978
b0 $"
#979
b1110000 $"
#981
b1100000 $"
#982
b1110000 $"
#984
b1100000 $"
#985
b1110000 $"
#986
b10000 $"
#987
b1110000 $"
#988
b1100000 $"
#989
b1110000 $"
#991
b1100000 $"
#992
b1110000 $"
#994
b0 $"
#995
b1110000 $"
#997
b1100000 $"
#998
b1110000 $"
#1000
b1100000 $"
#1001
b1110000 $"
#1002
b10000 $"
#1003
b1110000 $"
#1004
b1100000 $"
#1005
b1110000 $"
#1007
b1100000 $"
#1008
b1110000 $"
#1010
b0 $"
#1011
b1110000 $"
#1013
b1100000 $"
#1014
b1110000 $"
#1016
b1100000 $"
#1017
b1110000 $"
#1018
b10000 $"
#1019
b1110000 $"
#1020
b1100000 $"
#1021
b1110000 $"
#1023
b1100000 $"
