linux-kernel/tests/.Xil/Vivado-5344-CeRICT-RECIPE-0/hw_ila_data_1/zip_work/waveform.vcd
$date
        2019-Oct-24 12:31:39
$end
$version
        Vivado v2019.1.3 (64-bit)
$end
$timescale
        1ps
$end
$scope module dut $end
$var reg 64 " counter [63:0] $end
$var reg 32 b val_bram [31:0] $end
$var reg 32 $" val_bram_1 [31:0] $end
$var reg 32 D" out [31:0] $end
$var reg 1 d" _TRIGGER $end
$var reg 1 e" _WINDOW $end
$var reg 1 f" _GAP $end
$upscope $end
$enddefinitions $end
#0
$dumpvars
b101101100100011110111110100000001 "
b1000010000001111000011111 b
b1000010000001111000011111 $"
b0 D"
0d"
1e"
0f"
$end
#1
b101101100100011110111110100000010 "
#2
b101101100100011110111110100000011 "
#3
b101101100100011110111110100000100 "
#4
b101101100100011110111110100000101 "
#5
b101101100100011110111110100000110 "
#6
b101101100100011110111110100000111 "
#7
b101101100100011110111110100001000 "
#8
b101101100100011110111110100001001 "
#9
b101101100100011110111110100001010 "
#10
b101101100100011110111110100001011 "
#11
b101101100100011110111110100001100 "
#12
b101101100100011110111110100001101 "
#13
b101101100100011110111110100001110 "
#14
b101101100100011110111110100001111 "
#15
b101101100100011110111110100010000 "
#16
b101101100100011110111110100010001 "
#17
b101101100100011110111110100010010 "
#18
b101101100100011110111110100010011 "
#19
b101101100100011110111110100010100 "
#20
b101101100100011110111110100010101 "
#21
b101101100100011110111110100010110 "
#22
b101101100100011110111110100010111 "
#23
b101101100100011110111110100011000 "
#24
b101101100100011110111110100011001 "
#25
b101101100100011110111110100011010 "
#26
b101101100100011110111110100011011 "
#27
b101101100100011110111110100011100 "
#28
b101101100100011110111110100011101 "
#29
b101101100100011110111110100011110 "
#30
b101101100100011110111110100011111 "
#31
b101101100100011110111110100100000 "
#32
b101101100100011110111110100100001 "
#33
b101101100100011110111110100100010 "
#34
b101101100100011110111110100100011 "
#35
b101101100100011110111110100100100 "
#36
b101101100100011110111110100100101 "
#37
b101101100100011110111110100100110 "
#38
b101101100100011110111110100100111 "
#39
b101101100100011110111110100101000 "
#40
b101101100100011110111110100101001 "
#41
b101101100100011110111110100101010 "
#42
b101101100100011110111110100101011 "
#43
b101101100100011110111110100101100 "
#44
b101101100100011110111110100101101 "
#45
b101101100100011110111110100101110 "
#46
b101101100100011110111110100101111 "
#47
b101101100100011110111110100110000 "
#48
b101101100100011110111110100110001 "
#49
b101101100100011110111110100110010 "
#50
b101101100100011110111110100110011 "
#51
b101101100100011110111110100110100 "
#52
b101101100100011110111110100110101 "
#53
b101101100100011110111110100110110 "
#54
b101101100100011110111110100110111 "
#55
b101101100100011110111110100111000 "
#56
b101101100100011110111110100111001 "
#57
b101101100100011110111110100111010 "
#58
b101101100100011110111110100111011 "
#59
b101101100100011110111110100111100 "
#60
b101101100100011110111110100111101 "
#61
b101101100100011110111110100111110 "
#62
b101101100100011110111110100111111 "
#63
b101101100100011110111110101000000 "
#64
b101101100100011110111110101000001 "
#65
b101101100100011110111110101000010 "
#66
b101101100100011110111110101000011 "
#67
b101101100100011110111110101000100 "
#68
b101101100100011110111110101000101 "
#69
b101101100100011110111110101000110 "
#70
b101101100100011110111110101000111 "
#71
b101101100100011110111110101001000 "
#72
b101101100100011110111110101001001 "
#73
b101101100100011110111110101001010 "
#74
b101101100100011110111110101001011 "
#75
b101101100100011110111110101001100 "
#76
b101101100100011110111110101001101 "
#77
b101101100100011110111110101001110 "
#78
b101101100100011110111110101001111 "
#79
b101101100100011110111110101010000 "
#80
b101101100100011110111110101010001 "
#81
b101101100100011110111110101010010 "
#82
b101101100100011110111110101010011 "
#83
b101101100100011110111110101010100 "
#84
b101101100100011110111110101010101 "
#85
b101101100100011110111110101010110 "
#86
b101101100100011110111110101010111 "
#87
b101101100100011110111110101011000 "
#88
b101101100100011110111110101011001 "
#89
b101101100100011110111110101011010 "
#90
b101101100100011110111110101011011 "
#91
b101101100100011110111110101011100 "
#92
b101101100100011110111110101011101 "
#93
b101101100100011110111110101011110 "
#94
b101101100100011110111110101011111 "
#95
b101101100100011110111110101100000 "
#96
b101101100100011110111110101100001 "
#97
b101101100100011110111110101100010 "
#98
b101101100100011110111110101100011 "
#99
b101101100100011110111110101100100 "
#100
b101101100100011110111110101100101 "
#101
b101101100100011110111110101100110 "
#102
b101101100100011110111110101100111 "
#103
b101101100100011110111110101101000 "
#104
b101101100100011110111110101101001 "
#105
b101101100100011110111110101101010 "
#106
b101101100100011110111110101101011 "
#107
b101101100100011110111110101101100 "
#108
b101101100100011110111110101101101 "
#109
b101101100100011110111110101101110 "
#110
b101101100100011110111110101101111 "
#111
b101101100100011110111110101110000 "
#112
b101101100100011110111110101110001 "
#113
b101101100100011110111110101110010 "
#114
b101101100100011110111110101110011 "
#115
b101101100100011110111110101110100 "
#116
b101101100100011110111110101110101 "
#117
b101101100100011110111110101110110 "
#118
b101101100100011110111110101110111 "
#119
b101101100100011110111110101111000 "
#120
b101101100100011110111110101111001 "
#121
b101101100100011110111110101111010 "
#122
b101101100100011110111110101111011 "
#123
b101101100100011110111110101111100 "
#124
b101101100100011110111110101111101 "
#125
b101101100100011110111110101111110 "
#126
b101101100100011110111110101111111 "
#127
b101101100100011110111110110000000 "
#128
b101101100100011110111110110000001 "
#129
b101101100100011110111110110000010 "
#130
b101101100100011110111110110000011 "
#131
b101101100100011110111110110000100 "
#132
b101101100100011110111110110000101 "
#133
b101101100100011110111110110000110 "
#134
b101101100100011110111110110000111 "
#135
b101101100100011110111110110001000 "
#136
b101101100100011110111110110001001 "
#137
b101101100100011110111110110001010 "
#138
b101101100100011110111110110001011 "
#139
b101101100100011110111110110001100 "
#140
b101101100100011110111110110001101 "
#141
b101101100100011110111110110001110 "
#142
b101101100100011110111110110001111 "
#143
b101101100100011110111110110010000 "
#144
b101101100100011110111110110010001 "
#145
b101101100100011110111110110010010 "
#146
b101101100100011110111110110010011 "
#147
b101101100100011110111110110010100 "
#148
b101101100100011110111110110010101 "
#149
b101101100100011110111110110010110 "
#150
b101101100100011110111110110010111 "
#151
b101101100100011110111110110011000 "
#152
b101101100100011110111110110011001 "
#153
b101101100100011110111110110011010 "
#154
b101101100100011110111110110011011 "
#155
b101101100100011110111110110011100 "
#156
b101101100100011110111110110011101 "
#157
b101101100100011110111110110011110 "
#158
b101101100100011110111110110011111 "
#159
b101101100100011110111110110100000 "
#160
b101101100100011110111110110100001 "
#161
b101101100100011110111110110100010 "
#162
b101101100100011110111110110100011 "
#163
b101101100100011110111110110100100 "
#164
b101101100100011110111110110100101 "
#165
b101101100100011110111110110100110 "
#166
b101101100100011110111110110100111 "
#167
b101101100100011110111110110101000 "
#168
b101101100100011110111110110101001 "
#169
b101101100100011110111110110101010 "
#170
b101101100100011110111110110101011 "
#171
b101101100100011110111110110101100 "
#172
b101101100100011110111110110101101 "
#173
b101101100100011110111110110101110 "
#174
b101101100100011110111110110101111 "
#175
b101101100100011110111110110110000 "
#176
b101101100100011110111110110110001 "
#177
b101101100100011110111110110110010 "
#178
b101101100100011110111110110110011 "
#179
b101101100100011110111110110110100 "
#180
b101101100100011110111110110110101 "
#181
b101101100100011110111110110110110 "
#182
b101101100100011110111110110110111 "
#183
b101101100100011110111110110111000 "
#184
b101101100100011110111110110111001 "
#185
b101101100100011110111110110111010 "
#186
b101101100100011110111110110111011 "
#187
b101101100100011110111110110111100 "
#188
b101101100100011110111110110111101 "
#189
b101101100100011110111110110111110 "
#190
b101101100100011110111110110111111 "
#191
b101101100100011110111110111000000 "
#192
b101101100100011110111110111000001 "
#193
b101101100100011110111110111000010 "
#194
b101101100100011110111110111000011 "
#195
b101101100100011110111110111000100 "
#196
b101101100100011110111110111000101 "
#197
b101101100100011110111110111000110 "
#198
b101101100100011110111110111000111 "
#199
b101101100100011110111110111001000 "
#200
b101101100100011110111110111001001 "
#201
b101101100100011110111110111001010 "
#202
b101101100100011110111110111001011 "
#203
b101101100100011110111110111001100 "
#204
b101101100100011110111110111001101 "
#205
b101101100100011110111110111001110 "
#206
b101101100100011110111110111001111 "
#207
b101101100100011110111110111010000 "
#208
b101101100100011110111110111010001 "
#209
b101101100100011110111110111010010 "
#210
b101101100100011110111110111010011 "
#211
b101101100100011110111110111010100 "
#212
b101101100100011110111110111010101 "
#213
b101101100100011110111110111010110 "
#214
b101101100100011110111110111010111 "
#215
b101101100100011110111110111011000 "
#216
b101101100100011110111110111011001 "
#217
b101101100100011110111110111011010 "
#218
b101101100100011110111110111011011 "
#219
b101101100100011110111110111011100 "
#220
b101101100100011110111110111011101 "
#221
b101101100100011110111110111011110 "
#222
b101101100100011110111110111011111 "
#223
b101101100100011110111110111100000 "
#224
b101101100100011110111110111100001 "
#225
b101101100100011110111110111100010 "
#226
b101101100100011110111110111100011 "
#227
b101101100100011110111110111100100 "
#228
b101101100100011110111110111100101 "
#229
b101101100100011110111110111100110 "
#230
b101101100100011110111110111100111 "
#231
b101101100100011110111110111101000 "
#232
b101101100100011110111110111101001 "
#233
b101101100100011110111110111101010 "
#234
b101101100100011110111110111101011 "
#235
b101101100100011110111110111101100 "
#236
b101101100100011110111110111101101 "
#237
b101101100100011110111110111101110 "
#238
b101101100100011110111110111101111 "
#239
b101101100100011110111110111110000 "
#240
b101101100100011110111110111110001 "
#241
b101101100100011110111110111110010 "
#242
b101101100100011110111110111110011 "
#243
b101101100100011110111110111110100 "
#244
b101101100100011110111110111110101 "
#245
b101101100100011110111110111110110 "
#246
b101101100100011110111110111110111 "
#247
b101101100100011110111110111111000 "
#248
b101101100100011110111110111111001 "
#249
b101101100100011110111110111111010 "
#250
b101101100100011110111110111111011 "
#251
b101101100100011110111110111111100 "
#252
b101101100100011110111110111111101 "
#253
b101101100100011110111110111111110 "
#254
b101101100100011110111110111111111 "
#255
b101101100100011110111111000000000 "
#256
b101101100100011110111111000000001 "
#257
b101101100100011110111111000000010 "
#258
b101101100100011110111111000000011 "
#259
b101101100100011110111111000000100 "
#260
b101101100100011110111111000000101 "
#261
b101101100100011110111111000000110 "
#262
b101101100100011110111111000000111 "
#263
b101101100100011110111111000001000 "
#264
b101101100100011110111111000001001 "
#265
b101101100100011110111111000001010 "
#266
b101101100100011110111111000001011 "
#267
b101101100100011110111111000001100 "
#268
b101101100100011110111111000001101 "
#269
b101101100100011110111111000001110 "
#270
b101101100100011110111111000001111 "
#271
b101101100100011110111111000010000 "
#272
b101101100100011110111111000010001 "
#273
b101101100100011110111111000010010 "
#274
b101101100100011110111111000010011 "
#275
b101101100100011110111111000010100 "
#276
b101101100100011110111111000010101 "
#277
b101101100100011110111111000010110 "
#278
b101101100100011110111111000010111 "
#279
b101101100100011110111111000011000 "
#280
b101101100100011110111111000011001 "
#281
b101101100100011110111111000011010 "
#282
b101101100100011110111111000011011 "
#283
b101101100100011110111111000011100 "
#284
b101101100100011110111111000011101 "
#285
b101101100100011110111111000011110 "
#286
b101101100100011110111111000011111 "
#287
b101101100100011110111111000100000 "
#288
b101101100100011110111111000100001 "
#289
b101101100100011110111111000100010 "
#290
b101101100100011110111111000100011 "
#291
b101101100100011110111111000100100 "
#292
b101101100100011110111111000100101 "
#293
b101101100100011110111111000100110 "
#294
b101101100100011110111111000100111 "
#295
b101101100100011110111111000101000 "
#296
b101101100100011110111111000101001 "
#297
b101101100100011110111111000101010 "
#298
b101101100100011110111111000101011 "
#299
b101101100100011110111111000101100 "
#300
b101101100100011110111111000101101 "
#301
b101101100100011110111111000101110 "
#302
b101101100100011110111111000101111 "
#303
b101101100100011110111111000110000 "
#304
b101101100100011110111111000110001 "
#305
b101101100100011110111111000110010 "
#306
b101101100100011110111111000110011 "
#307
b101101100100011110111111000110100 "
#308
b101101100100011110111111000110101 "
#309
b101101100100011110111111000110110 "
#310
b101101100100011110111111000110111 "
#311
b101101100100011110111111000111000 "
#312
b101101100100011110111111000111001 "
#313
b101101100100011110111111000111010 "
#314
b101101100100011110111111000111011 "
#315
b101101100100011110111111000111100 "
#316
b101101100100011110111111000111101 "
#317
b101101100100011110111111000111110 "
#318
b101101100100011110111111000111111 "
#319
b101101100100011110111111001000000 "
#320
b101101100100011110111111001000001 "
#321
b101101100100011110111111001000010 "
#322
b101101100100011110111111001000011 "
#323
b101101100100011110111111001000100 "
#324
b101101100100011110111111001000101 "
#325
b101101100100011110111111001000110 "
#326
b101101100100011110111111001000111 "
#327
b101101100100011110111111001001000 "
#328
b101101100100011110111111001001001 "
#329
b101101100100011110111111001001010 "
#330
b101101100100011110111111001001011 "
#331
b101101100100011110111111001001100 "
#332
b101101100100011110111111001001101 "
#333
b101101100100011110111111001001110 "
#334
b101101100100011110111111001001111 "
#335
b101101100100011110111111001010000 "
#336
b101101100100011110111111001010001 "
#337
b101101100100011110111111001010010 "
#338
b101101100100011110111111001010011 "
#339
b101101100100011110111111001010100 "
#340
b101101100100011110111111001010101 "
#341
b101101100100011110111111001010110 "
#342
b101101100100011110111111001010111 "
#343
b101101100100011110111111001011000 "
#344
b101101100100011110111111001011001 "
#345
b101101100100011110111111001011010 "
#346
b101101100100011110111111001011011 "
#347
b101101100100011110111111001011100 "
#348
b101101100100011110111111001011101 "
#349
b101101100100011110111111001011110 "
#350
b101101100100011110111111001011111 "
#351
b101101100100011110111111001100000 "
#352
b101101100100011110111111001100001 "
#353
b101101100100011110111111001100010 "
#354
b101101100100011110111111001100011 "
#355
b101101100100011110111111001100100 "
#356
b101101100100011110111111001100101 "
#357
b101101100100011110111111001100110 "
#358
b101101100100011110111111001100111 "
#359
b101101100100011110111111001101000 "
#360
b101101100100011110111111001101001 "
#361
b101101100100011110111111001101010 "
#362
b101101100100011110111111001101011 "
#363
b101101100100011110111111001101100 "
#364
b101101100100011110111111001101101 "
#365
b101101100100011110111111001101110 "
#366
b101101100100011110111111001101111 "
#367
b101101100100011110111111001110000 "
#368
b101101100100011110111111001110001 "
#369
b101101100100011110111111001110010 "
#370
b101101100100011110111111001110011 "
#371
b101101100100011110111111001110100 "
#372
b101101100100011110111111001110101 "
#373
b101101100100011110111111001110110 "
#374
b101101100100011110111111001110111 "
#375
b101101100100011110111111001111000 "
#376
b101101100100011110111111001111001 "
#377
b101101100100011110111111001111010 "
#378
b101101100100011110111111001111011 "
#379
b101101100100011110111111001111100 "
#380
b101101100100011110111111001111101 "
#381
b101101100100011110111111001111110 "
#382
b101101100100011110111111001111111 "
#383
b101101100100011110111111010000000 "
#384
b101101100100011110111111010000001 "
#385
b101101100100011110111111010000010 "
#386
b101101100100011110111111010000011 "
#387
b101101100100011110111111010000100 "
#388
b101101100100011110111111010000101 "
#389
b101101100100011110111111010000110 "
#390
b101101100100011110111111010000111 "
#391
b101101100100011110111111010001000 "
#392
b101101100100011110111111010001001 "
#393
b101101100100011110111111010001010 "
#394
b101101100100011110111111010001011 "
#395
b101101100100011110111111010001100 "
#396
b101101100100011110111111010001101 "
#397
b101101100100011110111111010001110 "
#398
b101101100100011110111111010001111 "
#399
b101101100100011110111111010010000 "
#400
b101101100100011110111111010010001 "
#401
b101101100100011110111111010010010 "
#402
b101101100100011110111111010010011 "
#403
b101101100100011110111111010010100 "
#404
b101101100100011110111111010010101 "
#405
b101101100100011110111111010010110 "
#406
b101101100100011110111111010010111 "
#407
b101101100100011110111111010011000 "
#408
b101101100100011110111111010011001 "
#409
b101101100100011110111111010011010 "
#410
b101101100100011110111111010011011 "
#411
b101101100100011110111111010011100 "
#412
b101101100100011110111111010011101 "
#413
b101101100100011110111111010011110 "
#414
b101101100100011110111111010011111 "
#415
b101101100100011110111111010100000 "
#416
b101101100100011110111111010100001 "
#417
b101101100100011110111111010100010 "
#418
b101101100100011110111111010100011 "
#419
b101101100100011110111111010100100 "
#420
b101101100100011110111111010100101 "
#421
b101101100100011110111111010100110 "
#422
b101101100100011110111111010100111 "
#423
b101101100100011110111111010101000 "
#424
b101101100100011110111111010101001 "
#425
b101101100100011110111111010101010 "
#426
b101101100100011110111111010101011 "
#427
b101101100100011110111111010101100 "
#428
b101101100100011110111111010101101 "
#429
b101101100100011110111111010101110 "
#430
b101101100100011110111111010101111 "
#431
b101101100100011110111111010110000 "
#432
b101101100100011110111111010110001 "
#433
b101101100100011110111111010110010 "
#434
b101101100100011110111111010110011 "
#435
b101101100100011110111111010110100 "
#436
b101101100100011110111111010110101 "
#437
b101101100100011110111111010110110 "
#438
b101101100100011110111111010110111 "
#439
b101101100100011110111111010111000 "
#440
b101101100100011110111111010111001 "
#441
b101101100100011110111111010111010 "
#442
b101101100100011110111111010111011 "
#443
b101101100100011110111111010111100 "
#444
b101101100100011110111111010111101 "
#445
b101101100100011110111111010111110 "
#446
b101101100100011110111111010111111 "
#447
b101101100100011110111111011000000 "
#448
b101101100100011110111111011000001 "
#449
b101101100100011110111111011000010 "
#450
b101101100100011110111111011000011 "
#451
b101101100100011110111111011000100 "
#452
b101101100100011110111111011000101 "
#453
b101101100100011110111111011000110 "
#454
b101101100100011110111111011000111 "
#455
b101101100100011110111111011001000 "
#456
b101101100100011110111111011001001 "
#457
b101101100100011110111111011001010 "
#458
b101101100100011110111111011001011 "
#459
b101101100100011110111111011001100 "
#460
b101101100100011110111111011001101 "
#461
b101101100100011110111111011001110 "
#462
b101101100100011110111111011001111 "
#463
b101101100100011110111111011010000 "
#464
b101101100100011110111111011010001 "
#465
b101101100100011110111111011010010 "
#466
b101101100100011110111111011010011 "
#467
b101101100100011110111111011010100 "
#468
b101101100100011110111111011010101 "
#469
b101101100100011110111111011010110 "
#470
b101101100100011110111111011010111 "
#471
b101101100100011110111111011011000 "
#472
b101101100100011110111111011011001 "
#473
b101101100100011110111111011011010 "
#474
b101101100100011110111111011011011 "
#475
b101101100100011110111111011011100 "
#476
b101101100100011110111111011011101 "
#477
b101101100100011110111111011011110 "
#478
b101101100100011110111111011011111 "
#479
b101101100100011110111111011100000 "
#480
b101101100100011110111111011100001 "
#481
b101101100100011110111111011100010 "
#482
b101101100100011110111111011100011 "
#483
b101101100100011110111111011100100 "
#484
b101101100100011110111111011100101 "
#485
b101101100100011110111111011100110 "
#486
b101101100100011110111111011100111 "
#487
b101101100100011110111111011101000 "
#488
b101101100100011110111111011101001 "
#489
b101101100100011110111111011101010 "
#490
b101101100100011110111111011101011 "
#491
b101101100100011110111111011101100 "
#492
b101101100100011110111111011101101 "
#493
b101101100100011110111111011101110 "
#494
b101101100100011110111111011101111 "
#495
b101101100100011110111111011110000 "
#496
b101101100100011110111111011110001 "
#497
b101101100100011110111111011110010 "
#498
b101101100100011110111111011110011 "
#499
b101101100100011110111111011110100 "
#500
b101101100100011110111111011110101 "
#501
b101101100100011110111111011110110 "
#502
b101101100100011110111111011110111 "
#503
b101101100100011110111111011111000 "
#504
b101101100100011110111111011111001 "
#505
b101101100100011110111111011111010 "
#506
b101101100100011110111111011111011 "
#507
b101101100100011110111111011111100 "
#508
b101101100100011110111111011111101 "
#509
b101101100100011110111111011111110 "
#510
b101101100100011110111111011111111 "
#511
b101101100100011110111111100000000 "
#512
b101101100100011110111111100000001 "
1d"
#513
b101101100100011110111111100000010 "
#514
b101101100100011110111111100000011 "
#515
b101101100100011110111111100000100 "
#516
b101101100100011110111111100000101 "
#517
b101101100100011110111111100000110 "
#518
b101101100100011110111111100000111 "
#519
b101101100100011110111111100001000 "
#520
b101101100100011110111111100001001 "
#521
b101101100100011110111111100001010 "
#522
b101101100100011110111111100001011 "
#523
b101101100100011110111111100001100 "
#524
b101101100100011110111111100001101 "
#525
b101101100100011110111111100001110 "
#526
b101101100100011110111111100001111 "
#527
b101101100100011110111111100010000 "
#528
b101101100100011110111111100010001 "
#529
b101101100100011110111111100010010 "
#530
b101101100100011110111111100010011 "
#531
b101101100100011110111111100010100 "
#532
b101101100100011110111111100010101 "
#533
b101101100100011110111111100010110 "
#534
b101101100100011110111111100010111 "
#535
b101101100100011110111111100011000 "
#536
b101101100100011110111111100011001 "
#537
b101101100100011110111111100011010 "
#538
b101101100100011110111111100011011 "
#539
b101101100100011110111111100011100 "
#540
b101101100100011110111111100011101 "
#541
b101101100100011110111111100011110 "
#542
b101101100100011110111111100011111 "
#543
b101101100100011110111111100100000 "
#544
b101101100100011110111111100100001 "
#545
b101101100100011110111111100100010 "
#546
b101101100100011110111111100100011 "
#547
b101101100100011110111111100100100 "
#548
b101101100100011110111111100100101 "
#549
b101101100100011110111111100100110 "
#550
b101101100100011110111111100100111 "
#551
b101101100100011110111111100101000 "
#552
b101101100100011110111111100101001 "
#553
b101101100100011110111111100101010 "
#554
b101101100100011110111111100101011 "
#555
b101101100100011110111111100101100 "
#556
b101101100100011110111111100101101 "
#557
b101101100100011110111111100101110 "
#558
b101101100100011110111111100101111 "
#559
b101101100100011110111111100110000 "
#560
b101101100100011110111111100110001 "
#561
b101101100100011110111111100110010 "
#562
b101101100100011110111111100110011 "
#563
b101101100100011110111111100110100 "
#564
b101101100100011110111111100110101 "
#565
b101101100100011110111111100110110 "
#566
b101101100100011110111111100110111 "
#567
b101101100100011110111111100111000 "
#568
b101101100100011110111111100111001 "
#569
b101101100100011110111111100111010 "
#570
b101101100100011110111111100111011 "
#571
b101101100100011110111111100111100 "
#572
b101101100100011110111111100111101 "
#573
b101101100100011110111111100111110 "
#574
b101101100100011110111111100111111 "
#575
b101101100100011110111111101000000 "
#576
b101101100100011110111111101000001 "
#577
b101101100100011110111111101000010 "
#578
b101101100100011110111111101000011 "
#579
b101101100100011110111111101000100 "
#580
b101101100100011110111111101000101 "
#581
b101101100100011110111111101000110 "
#582
b101101100100011110111111101000111 "
#583
b101101100100011110111111101001000 "
#584
b101101100100011110111111101001001 "
#585
b101101100100011110111111101001010 "
#586
b101101100100011110111111101001011 "
#587
b101101100100011110111111101001100 "
#588
b101101100100011110111111101001101 "
#589
b101101100100011110111111101001110 "
#590
b101101100100011110111111101001111 "
#591
b101101100100011110111111101010000 "
#592
b101101100100011110111111101010001 "
#593
b101101100100011110111111101010010 "
#594
b101101100100011110111111101010011 "
#595
b101101100100011110111111101010100 "
#596
b101101100100011110111111101010101 "
#597
b101101100100011110111111101010110 "
#598
b101101100100011110111111101010111 "
#599
b101101100100011110111111101011000 "
#600
b101101100100011110111111101011001 "
#601
b101101100100011110111111101011010 "
#602
b101101100100011110111111101011011 "
#603
b101101100100011110111111101011100 "
#604
b101101100100011110111111101011101 "
#605
b101101100100011110111111101011110 "
#606
b101101100100011110111111101011111 "
#607
b101101100100011110111111101100000 "
#608
b101101100100011110111111101100001 "
#609
b101101100100011110111111101100010 "
#610
b101101100100011110111111101100011 "
#611
b101101100100011110111111101100100 "
#612
b101101100100011110111111101100101 "
#613
b101101100100011110111111101100110 "
#614
b101101100100011110111111101100111 "
#615
b101101100100011110111111101101000 "
#616
b101101100100011110111111101101001 "
#617
b101101100100011110111111101101010 "
#618
b101101100100011110111111101101011 "
#619
b101101100100011110111111101101100 "
#620
b101101100100011110111111101101101 "
#621
b101101100100011110111111101101110 "
#622
b101101100100011110111111101101111 "
#623
b101101100100011110111111101110000 "
#624
b101101100100011110111111101110001 "
#625
b101101100100011110111111101110010 "
#626
b101101100100011110111111101110011 "
#627
b101101100100011110111111101110100 "
#628
b101101100100011110111111101110101 "
#629
b101101100100011110111111101110110 "
#630
b101101100100011110111111101110111 "
#631
b101101100100011110111111101111000 "
#632
b101101100100011110111111101111001 "
#633
b101101100100011110111111101111010 "
#634
b101101100100011110111111101111011 "
#635
b101101100100011110111111101111100 "
#636
b101101100100011110111111101111101 "
#637
b101101100100011110111111101111110 "
#638
b101101100100011110111111101111111 "
#639
b101101100100011110111111110000000 "
#640
b101101100100011110111111110000001 "
#641
b101101100100011110111111110000010 "
#642
b101101100100011110111111110000011 "
#643
b101101100100011110111111110000100 "
#644
b101101100100011110111111110000101 "
#645
b101101100100011110111111110000110 "
#646
b101101100100011110111111110000111 "
#647
b101101100100011110111111110001000 "
#648
b101101100100011110111111110001001 "
#649
b101101100100011110111111110001010 "
#650
b101101100100011110111111110001011 "
#651
b101101100100011110111111110001100 "
#652
b101101100100011110111111110001101 "
#653
b101101100100011110111111110001110 "
#654
b101101100100011110111111110001111 "
#655
b101101100100011110111111110010000 "
#656
b101101100100011110111111110010001 "
#657
b101101100100011110111111110010010 "
#658
b101101100100011110111111110010011 "
#659
b101101100100011110111111110010100 "
#660
b101101100100011110111111110010101 "
#661
b101101100100011110111111110010110 "
#662
b101101100100011110111111110010111 "
#663
b101101100100011110111111110011000 "
#664
b101101100100011110111111110011001 "
#665
b101101100100011110111111110011010 "
#666
b101101100100011110111111110011011 "
#667
b101101100100011110111111110011100 "
#668
b101101100100011110111111110011101 "
#669
b101101100100011110111111110011110 "
#670
b101101100100011110111111110011111 "
#671
b101101100100011110111111110100000 "
#672
b101101100100011110111111110100001 "
#673
b101101100100011110111111110100010 "
#674
b101101100100011110111111110100011 "
#675
b101101100100011110111111110100100 "
#676
b101101100100011110111111110100101 "
#677
b101101100100011110111111110100110 "
#678
b101101100100011110111111110100111 "
#679
b101101100100011110111111110101000 "
#680
b101101100100011110111111110101001 "
#681
b101101100100011110111111110101010 "
#682
b101101100100011110111111110101011 "
#683
b101101100100011110111111110101100 "
#684
b101101100100011110111111110101101 "
#685
b101101100100011110111111110101110 "
#686
b101101100100011110111111110101111 "
#687
b101101100100011110111111110110000 "
#688
b101101100100011110111111110110001 "
#689
b101101100100011110111111110110010 "
#690
b101101100100011110111111110110011 "
#691
b101101100100011110111111110110100 "
#692
b101101100100011110111111110110101 "
#693
b101101100100011110111111110110110 "
#694
b101101100100011110111111110110111 "
#695
b101101100100011110111111110111000 "
#696
b101101100100011110111111110111001 "
#697
b101101100100011110111111110111010 "
#698
b101101100100011110111111110111011 "
#699
b101101100100011110111111110111100 "
#700
b101101100100011110111111110111101 "
#701
b101101100100011110111111110111110 "
#702
b101101100100011110111111110111111 "
#703
b101101100100011110111111111000000 "
#704
b101101100100011110111111111000001 "
#705
b101101100100011110111111111000010 "
#706
b101101100100011110111111111000011 "
#707
b101101100100011110111111111000100 "
#708
b101101100100011110111111111000101 "
#709
b101101100100011110111111111000110 "
#710
b101101100100011110111111111000111 "
#711
b101101100100011110111111111001000 "
#712
b101101100100011110111111111001001 "
#713
b101101100100011110111111111001010 "
#714
b101101100100011110111111111001011 "
#715
b101101100100011110111111111001100 "
#716
b101101100100011110111111111001101 "
#717
b101101100100011110111111111001110 "
#718
b101101100100011110111111111001111 "
#719
b101101100100011110111111111010000 "
#720
b101101100100011110111111111010001 "
#721
b101101100100011110111111111010010 "
#722
b101101100100011110111111111010011 "
#723
b101101100100011110111111111010100 "
#724
b101101100100011110111111111010101 "
#725
b101101100100011110111111111010110 "
#726
b101101100100011110111111111010111 "
#727
b101101100100011110111111111011000 "
#728
b101101100100011110111111111011001 "
#729
b101101100100011110111111111011010 "
#730
b101101100100011110111111111011011 "
#731
b101101100100011110111111111011100 "
#732
b101101100100011110111111111011101 "
#733
b101101100100011110111111111011110 "
#734
b101101100100011110111111111011111 "
#735
b101101100100011110111111111100000 "
#736
b101101100100011110111111111100001 "
#737
b101101100100011110111111111100010 "
#738
b101101100100011110111111111100011 "
#739
b101101100100011110111111111100100 "
#740
b101101100100011110111111111100101 "
#741
b101101100100011110111111111100110 "
#742
b101101100100011110111111111100111 "
#743
b101101100100011110111111111101000 "
#744
b101101100100011110111111111101001 "
#745
b101101100100011110111111111101010 "
#746
b101101100100011110111111111101011 "
#747
b101101100100011110111111111101100 "
#748
b101101100100011110111111111101101 "
#749
b101101100100011110111111111101110 "
#750
b101101100100011110111111111101111 "
#751
b101101100100011110111111111110000 "
#752
b101101100100011110111111111110001 "
#753
b101101100100011110111111111110010 "
#754
b101101100100011110111111111110011 "
#755
b101101100100011110111111111110100 "
#756
b101101100100011110111111111110101 "
#757
b101101100100011110111111111110110 "
#758
b101101100100011110111111111110111 "
#759
b101101100100011110111111111111000 "
#760
b101101100100011110111111111111001 "
#761
b101101100100011110111111111111010 "
#762
b101101100100011110111111111111011 "
#763
b101101100100011110111111111111100 "
#764
b101101100100011110111111111111101 "
#765
b101101100100011110111111111111110 "
#766
b101101100100011110111111111111111 "
#767
b101101100100011111000000000000000 "
#768
b101101100100011111000000000000001 "
#769
b101101100100011111000000000000010 "
#770
b101101100100011111000000000000011 "
#771
b101101100100011111000000000000100 "
#772
b101101100100011111000000000000101 "
#773
b101101100100011111000000000000110 "
#774
b101101100100011111000000000000111 "
#775
b101101100100011111000000000001000 "
#776
b101101100100011111000000000001001 "
#777
b101101100100011111000000000001010 "
#778
b101101100100011111000000000001011 "
#779
b101101100100011111000000000001100 "
#780
b101101100100011111000000000001101 "
#781
b101101100100011111000000000001110 "
#782
b101101100100011111000000000001111 "
#783
b101101100100011111000000000010000 "
#784
b101101100100011111000000000010001 "
#785
b101101100100011111000000000010010 "
#786
b101101100100011111000000000010011 "
#787
b101101100100011111000000000010100 "
#788
b101101100100011111000000000010101 "
#789
b101101100100011111000000000010110 "
#790
b101101100100011111000000000010111 "
#791
b101101100100011111000000000011000 "
#792
b101101100100011111000000000011001 "
#793
b101101100100011111000000000011010 "
#794
b101101100100011111000000000011011 "
#795
b101101100100011111000000000011100 "
#796
b101101100100011111000000000011101 "
#797
b101101100100011111000000000011110 "
#798
b101101100100011111000000000011111 "
#799
b101101100100011111000000000100000 "
#800
b101101100100011111000000000100001 "
#801
b101101100100011111000000000100010 "
#802
b101101100100011111000000000100011 "
#803
b101101100100011111000000000100100 "
#804
b101101100100011111000000000100101 "
#805
b101101100100011111000000000100110 "
#806
b101101100100011111000000000100111 "
#807
b101101100100011111000000000101000 "
#808
b101101100100011111000000000101001 "
#809
b101101100100011111000000000101010 "
#810
b101101100100011111000000000101011 "
#811
b101101100100011111000000000101100 "
#812
b101101100100011111000000000101101 "
#813
b101101100100011111000000000101110 "
