linux-kernel/tests/.Xil/Vivado-3267-CeRICT-RECIPE-0/hw_ila_data_1/zip_work/waveform.vcd
$date
        2019-Oct-21 17:11:27
$end
$version
        Vivado v2019.1.3 (64-bit)
$end
$timescale
        1ps
$end
$scope module dut $end
$var reg 64 " counter [63:0] $end
$var reg 32 b val_bram [31:0] $end
$var reg 32 $" val_bram_1 [31:0] $end
$var reg 32 D" out [31:0] $end
$var reg 1 d" _TRIGGER $end
$var reg 1 e" _WINDOW $end
$var reg 1 f" _GAP $end
$upscope $end
$enddefinitions $end
#0
$dumpvars
b1001111101000010111111011110001111101000 "
b1000010000001111000011111 b
b1000010000001111000011111 $"
b0 D"
0d"
1e"
0f"
$end
#1
b1001111101000010111111011110001111101001 "
#2
b1001111101000010111111011110001111101010 "
#3
b1001111101000010111111011110001111101011 "
#4
b1001111101000010111111011110001111101100 "
#5
b1001111101000010111111011110001111101101 "
#6
b1001111101000010111111011110001111101110 "
#7
b1001111101000010111111011110001111101111 "
#8
b1001111101000010111111011110001111110000 "
#9
b1001111101000010111111011110001111110001 "
#10
b1001111101000010111111011110001111110010 "
#11
b1001111101000010111111011110001111110011 "
#12
b1001111101000010111111011110001111110100 "
#13
b1001111101000010111111011110001111110101 "
#14
b1001111101000010111111011110001111110110 "
#15
b1001111101000010111111011110001111110111 "
#16
b1001111101000010111111011110001111111000 "
#17
b1001111101000010111111011110001111111001 "
#18
b1001111101000010111111011110001111111010 "
#19
b1001111101000010111111011110001111111011 "
#20
b1001111101000010111111011110001111111100 "
#21
b1001111101000010111111011110001111111101 "
#22
b1001111101000010111111011110001111111110 "
#23
b1001111101000010111111011110001111111111 "
#24
b1001111101000010111111011110010000000000 "
#25
b1001111101000010111111011110010000000001 "
#26
b1001111101000010111111011110010000000010 "
#27
b1001111101000010111111011110010000000011 "
#28
b1001111101000010111111011110010000000100 "
#29
b1001111101000010111111011110010000000101 "
#30
b1001111101000010111111011110010000000110 "
#31
b1001111101000010111111011110010000000111 "
#32
b1001111101000010111111011110010000001000 "
#33
b1001111101000010111111011110010000001001 "
#34
b1001111101000010111111011110010000001010 "
#35
b1001111101000010111111011110010000001011 "
#36
b1001111101000010111111011110010000001100 "
#37
b1001111101000010111111011110010000001101 "
#38
b1001111101000010111111011110010000001110 "
#39
b1001111101000010111111011110010000001111 "
#40
b1001111101000010111111011110010000010000 "
#41
b1001111101000010111111011110010000010001 "
#42
b1001111101000010111111011110010000010010 "
#43
b1001111101000010111111011110010000010011 "
#44
b1001111101000010111111011110010000010100 "
#45
b1001111101000010111111011110010000010101 "
#46
b1001111101000010111111011110010000010110 "
#47
b1001111101000010111111011110010000010111 "
#48
b1001111101000010111111011110010000011000 "
#49
b1001111101000010111111011110010000011001 "
#50
b1001111101000010111111011110010000011010 "
#51
b1001111101000010111111011110010000011011 "
#52
b1001111101000010111111011110010000011100 "
#53
b1001111101000010111111011110010000011101 "
#54
b1001111101000010111111011110010000011110 "
#55
b1001111101000010111111011110010000011111 "
#56
b1001111101000010111111011110010000100000 "
#57
b1001111101000010111111011110010000100001 "
#58
b1001111101000010111111011110010000100010 "
#59
b1001111101000010111111011110010000100011 "
#60
b1001111101000010111111011110010000100100 "
#61
b1001111101000010111111011110010000100101 "
#62
b1001111101000010111111011110010000100110 "
#63
b1001111101000010111111011110010000100111 "
#64
b1001111101000010111111011110010000101000 "
#65
b1001111101000010111111011110010000101001 "
#66
b1001111101000010111111011110010000101010 "
#67
b1001111101000010111111011110010000101011 "
#68
b1001111101000010111111011110010000101100 "
#69
b1001111101000010111111011110010000101101 "
#70
b1001111101000010111111011110010000101110 "
#71
b1001111101000010111111011110010000101111 "
#72
b1001111101000010111111011110010000110000 "
#73
b1001111101000010111111011110010000110001 "
#74
b1001111101000010111111011110010000110010 "
#75
b1001111101000010111111011110010000110011 "
#76
b1001111101000010111111011110010000110100 "
#77
b1001111101000010111111011110010000110101 "
#78
b1001111101000010111111011110010000110110 "
#79
b1001111101000010111111011110010000110111 "
#80
b1001111101000010111111011110010000111000 "
#81
b1001111101000010111111011110010000111001 "
#82
b1001111101000010111111011110010000111010 "
#83
b1001111101000010111111011110010000111011 "
#84
b1001111101000010111111011110010000111100 "
#85
b1001111101000010111111011110010000111101 "
#86
b1001111101000010111111011110010000111110 "
#87
b1001111101000010111111011110010000111111 "
#88
b1001111101000010111111011110010001000000 "
#89
b1001111101000010111111011110010001000001 "
#90
b1001111101000010111111011110010001000010 "
#91
b1001111101000010111111011110010001000011 "
#92
b1001111101000010111111011110010001000100 "
#93
b1001111101000010111111011110010001000101 "
#94
b1001111101000010111111011110010001000110 "
#95
b1001111101000010111111011110010001000111 "
#96
b1001111101000010111111011110010001001000 "
#97
b1001111101000010111111011110010001001001 "
#98
b1001111101000010111111011110010001001010 "
#99
b1001111101000010111111011110010001001011 "
#100
b1001111101000010111111011110010001001100 "
#101
b1001111101000010111111011110010001001101 "
#102
b1001111101000010111111011110010001001110 "
#103
b1001111101000010111111011110010001001111 "
#104
b1001111101000010111111011110010001010000 "
#105
b1001111101000010111111011110010001010001 "
#106
b1001111101000010111111011110010001010010 "
#107
b1001111101000010111111011110010001010011 "
#108
b1001111101000010111111011110010001010100 "
#109
b1001111101000010111111011110010001010101 "
#110
b1001111101000010111111011110010001010110 "
#111
b1001111101000010111111011110010001010111 "
#112
b1001111101000010111111011110010001011000 "
#113
b1001111101000010111111011110010001011001 "
#114
b1001111101000010111111011110010001011010 "
#115
b1001111101000010111111011110010001011011 "
#116
b1001111101000010111111011110010001011100 "
#117
b1001111101000010111111011110010001011101 "
#118
b1001111101000010111111011110010001011110 "
#119
b1001111101000010111111011110010001011111 "
#120
b1001111101000010111111011110010001100000 "
#121
b1001111101000010111111011110010001100001 "
#122
b1001111101000010111111011110010001100010 "
#123
b1001111101000010111111011110010001100011 "
#124
b1001111101000010111111011110010001100100 "
#125
b1001111101000010111111011110010001100101 "
#126
b1001111101000010111111011110010001100110 "
#127
b1001111101000010111111011110010001100111 "
#128
b1001111101000010111111011110010001101000 "
#129
b1001111101000010111111011110010001101001 "
#130
b1001111101000010111111011110010001101010 "
#131
b1001111101000010111111011110010001101011 "
#132
b1001111101000010111111011110010001101100 "
#133
b1001111101000010111111011110010001101101 "
#134
b1001111101000010111111011110010001101110 "
#135
b1001111101000010111111011110010001101111 "
#136
b1001111101000010111111011110010001110000 "
#137
b1001111101000010111111011110010001110001 "
#138
b1001111101000010111111011110010001110010 "
#139
b1001111101000010111111011110010001110011 "
#140
b1001111101000010111111011110010001110100 "
#141
b1001111101000010111111011110010001110101 "
#142
b1001111101000010111111011110010001110110 "
#143
b1001111101000010111111011110010001110111 "
#144
b1001111101000010111111011110010001111000 "
#145
b1001111101000010111111011110010001111001 "
#146
b1001111101000010111111011110010001111010 "
#147
b1001111101000010111111011110010001111011 "
#148
b1001111101000010111111011110010001111100 "
#149
b1001111101000010111111011110010001111101 "
#150
b1001111101000010111111011110010001111110 "
#151
b1001111101000010111111011110010001111111 "
#152
b1001111101000010111111011110010010000000 "
#153
b1001111101000010111111011110010010000001 "
#154
b1001111101000010111111011110010010000010 "
#155
b1001111101000010111111011110010010000011 "
#156
b1001111101000010111111011110010010000100 "
#157
b1001111101000010111111011110010010000101 "
#158
b1001111101000010111111011110010010000110 "
#159
b1001111101000010111111011110010010000111 "
#160
b1001111101000010111111011110010010001000 "
#161
b1001111101000010111111011110010010001001 "
#162
b1001111101000010111111011110010010001010 "
#163
b1001111101000010111111011110010010001011 "
#164
b1001111101000010111111011110010010001100 "
#165
b1001111101000010111111011110010010001101 "
#166
b1001111101000010111111011110010010001110 "
#167
b1001111101000010111111011110010010001111 "
#168
b1001111101000010111111011110010010010000 "
#169
b1001111101000010111111011110010010010001 "
#170
b1001111101000010111111011110010010010010 "
#171
b1001111101000010111111011110010010010011 "
#172
b1001111101000010111111011110010010010100 "
#173
b1001111101000010111111011110010010010101 "
#174
b1001111101000010111111011110010010010110 "
#175
b1001111101000010111111011110010010010111 "
#176
b1001111101000010111111011110010010011000 "
#177
b1001111101000010111111011110010010011001 "
#178
b1001111101000010111111011110010010011010 "
#179
b1001111101000010111111011110010010011011 "
#180
b1001111101000010111111011110010010011100 "
#181
b1001111101000010111111011110010010011101 "
#182
b1001111101000010111111011110010010011110 "
#183
b1001111101000010111111011110010010011111 "
#184
b1001111101000010111111011110010010100000 "
#185
b1001111101000010111111011110010010100001 "
#186
b1001111101000010111111011110010010100010 "
#187
b1001111101000010111111011110010010100011 "
#188
b1001111101000010111111011110010010100100 "
#189
b1001111101000010111111011110010010100101 "
#190
b1001111101000010111111011110010010100110 "
#191
b1001111101000010111111011110010010100111 "
#192
b1001111101000010111111011110010010101000 "
#193
b1001111101000010111111011110010010101001 "
#194
b1001111101000010111111011110010010101010 "
#195
b1001111101000010111111011110010010101011 "
#196
b1001111101000010111111011110010010101100 "
#197
b1001111101000010111111011110010010101101 "
#198
b1001111101000010111111011110010010101110 "
#199
b1001111101000010111111011110010010101111 "
#200
b1001111101000010111111011110010010110000 "
#201
b1001111101000010111111011110010010110001 "
#202
b1001111101000010111111011110010010110010 "
#203
b1001111101000010111111011110010010110011 "
#204
b1001111101000010111111011110010010110100 "
#205
b1001111101000010111111011110010010110101 "
#206
b1001111101000010111111011110010010110110 "
#207
b1001111101000010111111011110010010110111 "
#208
b1001111101000010111111011110010010111000 "
#209
b1001111101000010111111011110010010111001 "
#210
b1001111101000010111111011110010010111010 "
#211
b1001111101000010111111011110010010111011 "
#212
b1001111101000010111111011110010010111100 "
#213
b1001111101000010111111011110010010111101 "
#214
b1001111101000010111111011110010010111110 "
#215
b1001111101000010111111011110010010111111 "
#216
b1001111101000010111111011110010011000000 "
#217
b1001111101000010111111011110010011000001 "
#218
b1001111101000010111111011110010011000010 "
#219
b1001111101000010111111011110010011000011 "
#220
b1001111101000010111111011110010011000100 "
#221
b1001111101000010111111011110010011000101 "
#222
b1001111101000010111111011110010011000110 "
#223
b1001111101000010111111011110010011000111 "
#224
b1001111101000010111111011110010011001000 "
#225
b1001111101000010111111011110010011001001 "
#226
b1001111101000010111111011110010011001010 "
#227
b1001111101000010111111011110010011001011 "
#228
b1001111101000010111111011110010011001100 "
#229
b1001111101000010111111011110010011001101 "
#230
b1001111101000010111111011110010011001110 "
#231
b1001111101000010111111011110010011001111 "
#232
b1001111101000010111111011110010011010000 "
#233
b1001111101000010111111011110010011010001 "
#234
b1001111101000010111111011110010011010010 "
#235
b1001111101000010111111011110010011010011 "
#236
b1001111101000010111111011110010011010100 "
#237
b1001111101000010111111011110010011010101 "
#238
b1001111101000010111111011110010011010110 "
#239
b1001111101000010111111011110010011010111 "
#240
b1001111101000010111111011110010011011000 "
#241
b1001111101000010111111011110010011011001 "
#242
b1001111101000010111111011110010011011010 "
#243
b1001111101000010111111011110010011011011 "
#244
b1001111101000010111111011110010011011100 "
#245
b1001111101000010111111011110010011011101 "
#246
b1001111101000010111111011110010011011110 "
#247
b1001111101000010111111011110010011011111 "
#248
b1001111101000010111111011110010011100000 "
#249
b1001111101000010111111011110010011100001 "
#250
b1001111101000010111111011110010011100010 "
#251
b1001111101000010111111011110010011100011 "
#252
b1001111101000010111111011110010011100100 "
#253
b1001111101000010111111011110010011100101 "
#254
b1001111101000010111111011110010011100110 "
#255
b1001111101000010111111011110010011100111 "
#256
b1001111101000010111111011110010011101000 "
#257
b1001111101000010111111011110010011101001 "
#258
b1001111101000010111111011110010011101010 "
#259
b1001111101000010111111011110010011101011 "
#260
b1001111101000010111111011110010011101100 "
#261
b1001111101000010111111011110010011101101 "
#262
b1001111101000010111111011110010011101110 "
#263
b1001111101000010111111011110010011101111 "
#264
b1001111101000010111111011110010011110000 "
#265
b1001111101000010111111011110010011110001 "
#266
b1001111101000010111111011110010011110010 "
#267
b1001111101000010111111011110010011110011 "
#268
b1001111101000010111111011110010011110100 "
#269
b1001111101000010111111011110010011110101 "
#270
b1001111101000010111111011110010011110110 "
#271
b1001111101000010111111011110010011110111 "
#272
b1001111101000010111111011110010011111000 "
#273
b1001111101000010111111011110010011111001 "
#274
b1001111101000010111111011110010011111010 "
#275
b1001111101000010111111011110010011111011 "
#276
b1001111101000010111111011110010011111100 "
#277
b1001111101000010111111011110010011111101 "
#278
b1001111101000010111111011110010011111110 "
#279
b1001111101000010111111011110010011111111 "
#280
b1001111101000010111111011110010100000000 "
#281
b1001111101000010111111011110010100000001 "
#282
b1001111101000010111111011110010100000010 "
#283
b1001111101000010111111011110010100000011 "
#284
b1001111101000010111111011110010100000100 "
#285
b1001111101000010111111011110010100000101 "
#286
b1001111101000010111111011110010100000110 "
#287
b1001111101000010111111011110010100000111 "
#288
b1001111101000010111111011110010100001000 "
#289
b1001111101000010111111011110010100001001 "
#290
b1001111101000010111111011110010100001010 "
#291
b1001111101000010111111011110010100001011 "
#292
b1001111101000010111111011110010100001100 "
#293
b1001111101000010111111011110010100001101 "
#294
b1001111101000010111111011110010100001110 "
#295
b1001111101000010111111011110010100001111 "
#296
b1001111101000010111111011110010100010000 "
#297
b1001111101000010111111011110010100010001 "
#298
b1001111101000010111111011110010100010010 "
#299
b1001111101000010111111011110010100010011 "
#300
b1001111101000010111111011110010100010100 "
#301
b1001111101000010111111011110010100010101 "
#302
b1001111101000010111111011110010100010110 "
#303
b1001111101000010111111011110010100010111 "
#304
b1001111101000010111111011110010100011000 "
#305
b1001111101000010111111011110010100011001 "
#306
b1001111101000010111111011110010100011010 "
#307
b1001111101000010111111011110010100011011 "
#308
b1001111101000010111111011110010100011100 "
#309
b1001111101000010111111011110010100011101 "
#310
b1001111101000010111111011110010100011110 "
#311
b1001111101000010111111011110010100011111 "
#312
b1001111101000010111111011110010100100000 "
#313
b1001111101000010111111011110010100100001 "
#314
b1001111101000010111111011110010100100010 "
#315
b1001111101000010111111011110010100100011 "
#316
b1001111101000010111111011110010100100100 "
#317
b1001111101000010111111011110010100100101 "
#318
b1001111101000010111111011110010100100110 "
#319
b1001111101000010111111011110010100100111 "
#320
b1001111101000010111111011110010100101000 "
#321
b1001111101000010111111011110010100101001 "
#322
b1001111101000010111111011110010100101010 "
#323
b1001111101000010111111011110010100101011 "
#324
b1001111101000010111111011110010100101100 "
#325
b1001111101000010111111011110010100101101 "
#326
b1001111101000010111111011110010100101110 "
#327
b1001111101000010111111011110010100101111 "
#328
b1001111101000010111111011110010100110000 "
#329
b1001111101000010111111011110010100110001 "
#330
b1001111101000010111111011110010100110010 "
#331
b1001111101000010111111011110010100110011 "
#332
b1001111101000010111111011110010100110100 "
#333
b1001111101000010111111011110010100110101 "
#334
b1001111101000010111111011110010100110110 "
#335
b1001111101000010111111011110010100110111 "
#336
b1001111101000010111111011110010100111000 "
#337
b1001111101000010111111011110010100111001 "
#338
b1001111101000010111111011110010100111010 "
#339
b1001111101000010111111011110010100111011 "
#340
b1001111101000010111111011110010100111100 "
#341
b1001111101000010111111011110010100111101 "
#342
b1001111101000010111111011110010100111110 "
#343
b1001111101000010111111011110010100111111 "
#344
b1001111101000010111111011110010101000000 "
#345
b1001111101000010111111011110010101000001 "
#346
b1001111101000010111111011110010101000010 "
#347
b1001111101000010111111011110010101000011 "
#348
b1001111101000010111111011110010101000100 "
#349
b1001111101000010111111011110010101000101 "
#350
b1001111101000010111111011110010101000110 "
#351
b1001111101000010111111011110010101000111 "
#352
b1001111101000010111111011110010101001000 "
#353
b1001111101000010111111011110010101001001 "
#354
b1001111101000010111111011110010101001010 "
#355
b1001111101000010111111011110010101001011 "
#356
b1001111101000010111111011110010101001100 "
#357
b1001111101000010111111011110010101001101 "
#358
b1001111101000010111111011110010101001110 "
#359
b1001111101000010111111011110010101001111 "
#360
b1001111101000010111111011110010101010000 "
#361
b1001111101000010111111011110010101010001 "
#362
b1001111101000010111111011110010101010010 "
#363
b1001111101000010111111011110010101010011 "
#364
b1001111101000010111111011110010101010100 "
#365
b1001111101000010111111011110010101010101 "
#366
b1001111101000010111111011110010101010110 "
#367
b1001111101000010111111011110010101010111 "
#368
b1001111101000010111111011110010101011000 "
#369
b1001111101000010111111011110010101011001 "
#370
b1001111101000010111111011110010101011010 "
#371
b1001111101000010111111011110010101011011 "
#372
b1001111101000010111111011110010101011100 "
#373
b1001111101000010111111011110010101011101 "
#374
b1001111101000010111111011110010101011110 "
#375
b1001111101000010111111011110010101011111 "
#376
b1001111101000010111111011110010101100000 "
#377
b1001111101000010111111011110010101100001 "
#378
b1001111101000010111111011110010101100010 "
#379
b1001111101000010111111011110010101100011 "
#380
b1001111101000010111111011110010101100100 "
#381
b1001111101000010111111011110010101100101 "
#382
b1001111101000010111111011110010101100110 "
#383
b1001111101000010111111011110010101100111 "
#384
b1001111101000010111111011110010101101000 "
#385
b1001111101000010111111011110010101101001 "
#386
b1001111101000010111111011110010101101010 "
#387
b1001111101000010111111011110010101101011 "
#388
b1001111101000010111111011110010101101100 "
#389
b1001111101000010111111011110010101101101 "
#390
b1001111101000010111111011110010101101110 "
#391
b1001111101000010111111011110010101101111 "
#392
b1001111101000010111111011110010101110000 "
#393
b1001111101000010111111011110010101110001 "
#394
b1001111101000010111111011110010101110010 "
#395
b1001111101000010111111011110010101110011 "
#396
b1001111101000010111111011110010101110100 "
#397
b1001111101000010111111011110010101110101 "
#398
b1001111101000010111111011110010101110110 "
#399
b1001111101000010111111011110010101110111 "
#400
b1001111101000010111111011110010101111000 "
#401
b1001111101000010111111011110010101111001 "
#402
b1001111101000010111111011110010101111010 "
#403
b1001111101000010111111011110010101111011 "
#404
b1001111101000010111111011110010101111100 "
#405
b1001111101000010111111011110010101111101 "
#406
b1001111101000010111111011110010101111110 "
#407
b1001111101000010111111011110010101111111 "
#408
b1001111101000010111111011110010110000000 "
#409
b1001111101000010111111011110010110000001 "
#410
b1001111101000010111111011110010110000010 "
#411
b1001111101000010111111011110010110000011 "
#412
b1001111101000010111111011110010110000100 "
#413
b1001111101000010111111011110010110000101 "
#414
b1001111101000010111111011110010110000110 "
#415
b1001111101000010111111011110010110000111 "
#416
b1001111101000010111111011110010110001000 "
#417
b1001111101000010111111011110010110001001 "
#418
b1001111101000010111111011110010110001010 "
#419
b1001111101000010111111011110010110001011 "
#420
b1001111101000010111111011110010110001100 "
#421
b1001111101000010111111011110010110001101 "
#422
b1001111101000010111111011110010110001110 "
#423
b1001111101000010111111011110010110001111 "
#424
b1001111101000010111111011110010110010000 "
#425
b1001111101000010111111011110010110010001 "
#426
b1001111101000010111111011110010110010010 "
#427
b1001111101000010111111011110010110010011 "
#428
b1001111101000010111111011110010110010100 "
#429
b1001111101000010111111011110010110010101 "
#430
b1001111101000010111111011110010110010110 "
#431
b1001111101000010111111011110010110010111 "
#432
b1001111101000010111111011110010110011000 "
#433
b1001111101000010111111011110010110011001 "
#434
b1001111101000010111111011110010110011010 "
#435
b1001111101000010111111011110010110011011 "
#436
b1001111101000010111111011110010110011100 "
#437
b1001111101000010111111011110010110011101 "
#438
b1001111101000010111111011110010110011110 "
#439
b1001111101000010111111011110010110011111 "
#440
b1001111101000010111111011110010110100000 "
#441
b1001111101000010111111011110010110100001 "
#442
b1001111101000010111111011110010110100010 "
#443
b1001111101000010111111011110010110100011 "
#444
b1001111101000010111111011110010110100100 "
#445
b1001111101000010111111011110010110100101 "
#446
b1001111101000010111111011110010110100110 "
#447
b1001111101000010111111011110010110100111 "
#448
b1001111101000010111111011110010110101000 "
#449
b1001111101000010111111011110010110101001 "
#450
b1001111101000010111111011110010110101010 "
#451
b1001111101000010111111011110010110101011 "
#452
b1001111101000010111111011110010110101100 "
#453
b1001111101000010111111011110010110101101 "
#454
b1001111101000010111111011110010110101110 "
#455
b1001111101000010111111011110010110101111 "
#456
b1001111101000010111111011110010110110000 "
#457
b1001111101000010111111011110010110110001 "
#458
b1001111101000010111111011110010110110010 "
#459
b1001111101000010111111011110010110110011 "
#460
b1001111101000010111111011110010110110100 "
#461
b1001111101000010111111011110010110110101 "
#462
b1001111101000010111111011110010110110110 "
#463
b1001111101000010111111011110010110110111 "
#464
b1001111101000010111111011110010110111000 "
#465
b1001111101000010111111011110010110111001 "
#466
b1001111101000010111111011110010110111010 "
#467
b1001111101000010111111011110010110111011 "
#468
b1001111101000010111111011110010110111100 "
#469
b1001111101000010111111011110010110111101 "
#470
b1001111101000010111111011110010110111110 "
#471
b1001111101000010111111011110010110111111 "
#472
b1001111101000010111111011110010111000000 "
#473
b1001111101000010111111011110010111000001 "
#474
b1001111101000010111111011110010111000010 "
#475
b1001111101000010111111011110010111000011 "
#476
b1001111101000010111111011110010111000100 "
#477
b1001111101000010111111011110010111000101 "
#478
b1001111101000010111111011110010111000110 "
#479
b1001111101000010111111011110010111000111 "
#480
b1001111101000010111111011110010111001000 "
#481
b1001111101000010111111011110010111001001 "
#482
b1001111101000010111111011110010111001010 "
#483
b1001111101000010111111011110010111001011 "
#484
b1001111101000010111111011110010111001100 "
#485
b1001111101000010111111011110010111001101 "
#486
b1001111101000010111111011110010111001110 "
#487
b1001111101000010111111011110010111001111 "
#488
b1001111101000010111111011110010111010000 "
#489
b1001111101000010111111011110010111010001 "
#490
b1001111101000010111111011110010111010010 "
#491
b1001111101000010111111011110010111010011 "
#492
b1001111101000010111111011110010111010100 "
#493
b1001111101000010111111011110010111010101 "
#494
b1001111101000010111111011110010111010110 "
#495
b1001111101000010111111011110010111010111 "
#496
b1001111101000010111111011110010111011000 "
#497
b1001111101000010111111011110010111011001 "
#498
b1001111101000010111111011110010111011010 "
#499
b1001111101000010111111011110010111011011 "
#500
b1001111101000010111111011110010111011100 "
#501
b1001111101000010111111011110010111011101 "
#502
b1001111101000010111111011110010111011110 "
#503
b1001111101000010111111011110010111011111 "
#504
b1001111101000010111111011110010111100000 "
#505
b1001111101000010111111011110010111100001 "
#506
b1001111101000010111111011110010111100010 "
#507
b1001111101000010111111011110010111100011 "
#508
b1001111101000010111111011110010111100100 "
#509
b1001111101000010111111011110010111100101 "
#510
b1001111101000010111111011110010111100110 "
#511
b1001111101000010111111011110010111100111 "
#512
b1001111101000010111111011110010111101000 "
1d"
#513
b1001111101000010111111011110010111101001 "
#514
b1001111101000010111111011110010111101010 "
#515
b1001111101000010111111011110010111101011 "
#516
b1001111101000010111111011110010111101100 "
#517
b1001111101000010111111011110010111101101 "
#518
b1001111101000010111111011110010111101110 "
#519
b1001111101000010111111011110010111101111 "
#520
b1001111101000010111111011110010111110000 "
#521
b1001111101000010111111011110010111110001 "
#522
b1001111101000010111111011110010111110010 "
#523
b1001111101000010111111011110010111110011 "
#524
b1001111101000010111111011110010111110100 "
#525
b1001111101000010111111011110010111110101 "
#526
b1001111101000010111111011110010111110110 "
#527
b1001111101000010111111011110010111110111 "
#528
b1001111101000010111111011110010111111000 "
#529
b1001111101000010111111011110010111111001 "
#530
b1001111101000010111111011110010111111010 "
#531
b1001111101000010111111011110010111111011 "
#532
b1001111101000010111111011110010111111100 "
#533
b1001111101000010111111011110010111111101 "
#534
b1001111101000010111111011110010111111110 "
#535
b1001111101000010111111011110010111111111 "
#536
b1001111101000010111111011110011000000000 "
#537
b1001111101000010111111011110011000000001 "
#538
b1001111101000010111111011110011000000010 "
#539
b1001111101000010111111011110011000000011 "
#540
b1001111101000010111111011110011000000100 "
#541
b1001111101000010111111011110011000000101 "
#542
b1001111101000010111111011110011000000110 "
#543
b1001111101000010111111011110011000000111 "
#544
b1001111101000010111111011110011000001000 "
#545
b1001111101000010111111011110011000001001 "
#546
b1001111101000010111111011110011000001010 "
#547
b1001111101000010111111011110011000001011 "
#548
b1001111101000010111111011110011000001100 "
#549
b1001111101000010111111011110011000001101 "
#550
b1001111101000010111111011110011000001110 "
#551
b1001111101000010111111011110011000001111 "
#552
b1001111101000010111111011110011000010000 "
#553
b1001111101000010111111011110011000010001 "
#554
b1001111101000010111111011110011000010010 "
#555
b1001111101000010111111011110011000010011 "
#556
b1001111101000010111111011110011000010100 "
#557
b1001111101000010111111011110011000010101 "
#558
b1001111101000010111111011110011000010110 "
#559
b1001111101000010111111011110011000010111 "
#560
b1001111101000010111111011110011000011000 "
#561
b1001111101000010111111011110011000011001 "
#562
b1001111101000010111111011110011000011010 "
#563
b1001111101000010111111011110011000011011 "
#564
b1001111101000010111111011110011000011100 "
#565
b1001111101000010111111011110011000011101 "
#566
b1001111101000010111111011110011000011110 "
#567
b1001111101000010111111011110011000011111 "
#568
b1001111101000010111111011110011000100000 "
#569
b1001111101000010111111011110011000100001 "
#570
b1001111101000010111111011110011000100010 "
#571
b1001111101000010111111011110011000100011 "
#572
b1001111101000010111111011110011000100100 "
#573
b1001111101000010111111011110011000100101 "
#574
b1001111101000010111111011110011000100110 "
#575
b1001111101000010111111011110011000100111 "
#576
b1001111101000010111111011110011000101000 "
#577
b1001111101000010111111011110011000101001 "
#578
b1001111101000010111111011110011000101010 "
#579
b1001111101000010111111011110011000101011 "
#580
b1001111101000010111111011110011000101100 "
#581
b1001111101000010111111011110011000101101 "
#582
b1001111101000010111111011110011000101110 "
#583
b1001111101000010111111011110011000101111 "
#584
b1001111101000010111111011110011000110000 "
#585
b1001111101000010111111011110011000110001 "
#586
b1001111101000010111111011110011000110010 "
#587
b1001111101000010111111011110011000110011 "
#588
b1001111101000010111111011110011000110100 "
#589
b1001111101000010111111011110011000110101 "
#590
b1001111101000010111111011110011000110110 "
#591
b1001111101000010111111011110011000110111 "
#592
b1001111101000010111111011110011000111000 "
#593
b1001111101000010111111011110011000111001 "
#594
b1001111101000010111111011110011000111010 "
#595
b1001111101000010111111011110011000111011 "
#596
b1001111101000010111111011110011000111100 "
#597
b1001111101000010111111011110011000111101 "
#598
b1001111101000010111111011110011000111110 "
#599
b1001111101000010111111011110011000111111 "
#600
b1001111101000010111111011110011001000000 "
#601
b1001111101000010111111011110011001000001 "
#602
b1001111101000010111111011110011001000010 "
#603
b1001111101000010111111011110011001000011 "
#604
b1001111101000010111111011110011001000100 "
#605
b1001111101000010111111011110011001000101 "
#606
b1001111101000010111111011110011001000110 "
#607
b1001111101000010111111011110011001000111 "
#608
b1001111101000010111111011110011001001000 "
#609
b1001111101000010111111011110011001001001 "
#610
b1001111101000010111111011110011001001010 "
#611
b1001111101000010111111011110011001001011 "
#612
b1001111101000010111111011110011001001100 "
#613
b1001111101000010111111011110011001001101 "
#614
b1001111101000010111111011110011001001110 "
#615
b1001111101000010111111011110011001001111 "
#616
b1001111101000010111111011110011001010000 "
#617
b1001111101000010111111011110011001010001 "
#618
b1001111101000010111111011110011001010010 "
#619
b1001111101000010111111011110011001010011 "
#620
b1001111101000010111111011110011001010100 "
#621
b1001111101000010111111011110011001010101 "
#622
b1001111101000010111111011110011001010110 "
#623
b1001111101000010111111011110011001010111 "
#624
b1001111101000010111111011110011001011000 "
#625
b1001111101000010111111011110011001011001 "
#626
b1001111101000010111111011110011001011010 "
#627
b1001111101000010111111011110011001011011 "
#628
b1001111101000010111111011110011001011100 "
#629
b1001111101000010111111011110011001011101 "
#630
b1001111101000010111111011110011001011110 "
#631
b1001111101000010111111011110011001011111 "
#632
b1001111101000010111111011110011001100000 "
#633
b1001111101000010111111011110011001100001 "
#634
b1001111101000010111111011110011001100010 "
#635
b1001111101000010111111011110011001100011 "
#636
b1001111101000010111111011110011001100100 "
#637
b1001111101000010111111011110011001100101 "
#638
b1001111101000010111111011110011001100110 "
#639
b1001111101000010111111011110011001100111 "
#640
b1001111101000010111111011110011001101000 "
#641
b1001111101000010111111011110011001101001 "
#642
b1001111101000010111111011110011001101010 "
#643
b1001111101000010111111011110011001101011 "
#644
b1001111101000010111111011110011001101100 "
#645
b1001111101000010111111011110011001101101 "
#646
b1001111101000010111111011110011001101110 "
#647
b1001111101000010111111011110011001101111 "
#648
b1001111101000010111111011110011001110000 "
#649
b1001111101000010111111011110011001110001 "
#650
b1001111101000010111111011110011001110010 "
#651
b1001111101000010111111011110011001110011 "
#652
b1001111101000010111111011110011001110100 "
#653
b1001111101000010111111011110011001110101 "
#654
b1001111101000010111111011110011001110110 "
#655
b1001111101000010111111011110011001110111 "
#656
b1001111101000010111111011110011001111000 "
#657
b1001111101000010111111011110011001111001 "
#658
b1001111101000010111111011110011001111010 "
#659
b1001111101000010111111011110011001111011 "
#660
b1001111101000010111111011110011001111100 "
#661
b1001111101000010111111011110011001111101 "
#662
b1001111101000010111111011110011001111110 "
#663
b1001111101000010111111011110011001111111 "
#664
b1001111101000010111111011110011010000000 "
#665
b1001111101000010111111011110011010000001 "
#666
b1001111101000010111111011110011010000010 "
#667
b1001111101000010111111011110011010000011 "
#668
b1001111101000010111111011110011010000100 "
#669
b1001111101000010111111011110011010000101 "
#670
b1001111101000010111111011110011010000110 "
#671
b1001111101000010111111011110011010000111 "
#672
b1001111101000010111111011110011010001000 "
#673
b1001111101000010111111011110011010001001 "
#674
b1001111101000010111111011110011010001010 "
#675
b1001111101000010111111011110011010001011 "
#676
b1001111101000010111111011110011010001100 "
#677
b1001111101000010111111011110011010001101 "
#678
b1001111101000010111111011110011010001110 "
#679
b1001111101000010111111011110011010001111 "
#680
b1001111101000010111111011110011010010000 "
#681
b1001111101000010111111011110011010010001 "
#682
b1001111101000010111111011110011010010010 "
#683
b1001111101000010111111011110011010010011 "
#684
b1001111101000010111111011110011010010100 "
#685
b1001111101000010111111011110011010010101 "
#686
b1001111101000010111111011110011010010110 "
#687
b1001111101000010111111011110011010010111 "
#688
b1001111101000010111111011110011010011000 "
#689
b1001111101000010111111011110011010011001 "
#690
b1001111101000010111111011110011010011010 "
#691
b1001111101000010111111011110011010011011 "
#692
b1001111101000010111111011110011010011100 "
#693
b1001111101000010111111011110011010011101 "
#694
b1001111101000010111111011110011010011110 "
#695
b1001111101000010111111011110011010011111 "
#696
b1001111101000010111111011110011010100000 "
#697
b1001111101000010111111011110011010100001 "
