linux-kernel/tools/.Xil/Vivado-9414-CeRICT-RECIPE-0/hw_ila_data_1/zip_work/waveform.vcd
$date
        2019-Nov-12 21:47:54
$end
$version
        Vivado v2019.1.3 (64-bit)
$end
$timescale
        1ps
$end
$scope module dut $end
$var reg 15 " BRAM_PORTA_0_addr [14:0] $end
$var reg 1 1 BRAM_PORTA_0_clk $end
$var reg 32 2 BRAM_PORTA_0_din [31:0] $end
$var reg 32 R BRAM_PORTA_0_dout [31:0] $end
$var reg 1 r BRAM_PORTA_0_en $end
$var reg 1 s BRAM_PORTA_0_rst $end
$var reg 4 t BRAM_PORTA_0_we [3:0] $end
$var reg 1 x _TRIGGER $end
$var reg 1 y _WINDOW $end
$var reg 1 z _GAP $end
$upscope $end
$enddefinitions $end
#0
$dumpvars
b0 "
01
b11111111 2
b110100010111100111110010101 R
0r
0s
b0 t
0x
1y
0z
$end
#1
1r
#2
0r
#5
1r
#6
0r
#9
1r
#10
0r
#13
1r
#14
0r
#17
1r
#18
0r
#21
1r
#22
0r
#25
1r
#26
0r
#29
1r
#30
0r
#33
1r
#34
0r
#37
1r
#38
0r
#41
1r
#42
0r
#45
1r
#46
0r
#49
1r
#50
0r
#53
1r
#54
0r
#57
1r
#58
0r
#61
1r
#62
0r
#65
1r
#66
0r
#69
1r
#70
0r
#73
1r
#74
0r
#77
1r
#78
0r
#81
1r
#82
0r
#85
1r
#86
0r
#89
1r
#90
0r
#93
1r
#94
0r
#97
1r
#98
0r
#101
1r
#102
0r
#105
1r
#106
0r
#109
1r
#110
0r
#113
1r
#114
0r
#117
1r
#118
0r
#121
1r
#122
0r
#125
1r
#126
0r
#129
1r
#130
0r
#133
1r
#134
0r
#137
1r
#138
0r
#141
1r
#142
0r
#145
1r
#146
0r
#149
1r
#150
0r
#153
1r
#154
0r
#157
1r
#158
0r
#161
1r
#162
0r
#165
1r
#166
0r
#169
1r
#170
0r
#173
1r
#174
0r
#177
1r
#178
0r
#181
1r
#182
0r
#185
1r
#186
0r
#189
1r
#190
0r
#193
1r
#194
0r
#197
1r
#198
0r
#201
1r
#202
0r
#205
1r
#206
0r
#209
1r
#210
0r
#213
1r
#214
0r
#217
1r
#218
0r
#221
1r
#222
0r
#225
1r
#226
0r
#229
1r
#230
0r
#233
1r
#234
0r
#237
1r
#238
0r
#241
1r
#242
0r
#245
1r
#246
0r
#249
1r
#250
0r
#253
1r
#254
0r
#257
1r
#258
0r
#261
1r
#262
0r
#265
1r
#266
0r
#269
1r
#270
0r
#273
1r
#274
0r
#277
1r
#278
0r
#281
1r
#282
0r
#285
1r
#286
0r
#289
1r
#290
0r
#293
1r
#294
0r
#297
1r
#298
0r
#301
1r
#302
0r
#305
1r
#306
0r
#309
1r
#310
0r
#313
1r
#314
0r
#317
1r
#318
0r
#321
1r
#322
0r
#325
1r
#326
0r
#329
1r
#330
0r
#333
1r
#334
0r
#337
1r
#338
0r
#341
1r
#342
0r
#345
1r
#346
0r
#349
1r
#350
0r
#353
1r
#354
0r
#357
1r
#358
0r
#361
1r
#362
0r
#365
1r
#366
0r
#369
1r
#370
0r
#373
1r
#374
0r
#377
1r
#378
0r
#381
1r
#382
0r
#385
1r
#386
0r
#389
1r
#390
0r
#393
1r
#394
0r
#397
1r
#398
0r
#401
1r
#402
0r
#405
1r
#406
0r
#409
1r
#410
0r
#413
1r
#414
0r
#417
1r
#418
0r
#421
1r
#422
0r
#425
1r
#426
0r
#429
1r
#430
0r
#433
1r
#434
0r
#437
1r
#438
0r
#441
1r
#442
0r
#445
1r
#446
0r
#449
1r
#450
0r
#453
1r
#454
0r
#457
1r
#458
0r
#461
1r
#462
0r
#465
1r
#466
0r
#469
1r
#470
0r
#473
1r
#474
0r
#477
1r
#478
0r
#481
1r
#482
0r
#485
1r
#486
0r
#489
1r
#490
0r
#493
1r
#494
0r
#497
1r
#498
0r
#501
1r
#502
0r
#505
1r
#506
0r
#509
1r
#510
0r
#512
1x
#513
1r
#514
0r
#517
1r
#518
0r
#521
1r
#522
0r
#525
1r
#526
0r
#529
1r
#530
0r
#533
1r
#534
0r
#537
1r
#538
0r
#541
1r
#542
0r
#545
1r
#546
0r
#549
1r
#550
0r
#553
1r
#554
0r
#557
1r
#558
0r
#561
1r
#562
0r
#565
1r
#566
0r
#569
1r
#570
0r
#573
1r
#574
0r
#577
1r
#578
0r
#581
1r
#582
0r
#585
1r
#586
0r
#589
1r
#590
0r
#593
1r
#594
0r
#597
1r
#598
0r
#601
1r
#602
0r
#605
1r
#606
0r
#609
1r
#610
0r
#613
1r
#614
0r
#617
1r
#618
0r
#621
1r
#622
0r
#625
1r
#626
0r
#629
1r
#630
0r
#633
1r
#634
0r
#637
1r
#638
0r
#641
1r
#642
0r
#645
1r
#646
0r
#649
1r
#650
0r
#653
1r
#654
0r
#657
1r
#658
0r
#661
1r
#662
0r
#665
1r
#666
0r
#669
1r
#670
0r
#673
1r
#674
0r
#677
1r
#678
0r
#681
1r
#682
0r
#685
1r
#686
0r
#689
1r
#690
0r
#693
1r
#694
0r
#697
1r
#698
0r
#701
1r
#702
0r
#705
1r
#706
0r
#709
1r
#710
0r
#713
1r
#714
0r
#717
1r
#718
0r
#721
1r
#722
0r
#725
1r
#726
0r
#729
1r
#730
0r
#733
1r
#734
0r
#737
1r
#738
0r
#741
1r
#742
0r
#745
1r
#746
0r
#749
1r
#750
0r
#753
1r
#754
0r
#757
1r
#758
0r
#761
1r
#762
0r
#765
1r
#766
0r
#769
1r
#770
0r
#773
1r
#774
0r
#777
1r
#778
0r
#781
1r
#782
0r
#785
1r
#786
0r
#789
1r
#790
0r
#793
1r
#794
0r
#797
1r
#798
0r
#801
1r
#802
0r
#805
1r
#806
0r
#809
1r
#810
0r
#813
1r
#814
0r
#817
1r
#818
0r
#821
1r
#822
0r
#825
1r
#826
0r
#829
1r
#830
0r
#833
1r
#834
0r
#837
1r
#838
0r
#841
1r
#842
0r
#845
1r
#846
0r
#849
1r
#850
0r
#853
1r
#854
0r
#857
1r
#858
0r
#861
1r
#862
0r
#865
1r
#866
0r
#869
1r
#870
0r
#873
1r
#874
0r
#877
1r
#878
0r
#881
1r
#882
0r
#885
1r
#886
0r
#889
1r
#890
0r
#893
1r
#894
0r
#897
1r
#898
0r
#901
1r
#902
0r
#905
1r
#906
0r
#909
1r
#910
0r
#913
1r
#914
0r
#917
1r
#918
0r
#921
1r
#922
0r
#925
1r
#926
0r
#929
1r
#930
0r
#933
1r
#934
0r
#937
1r
#938
0r
#941
1r
#942
0r
#945
1r
#946
0r
#949
1r
#950
0r
#953
1r
#954
0r
#957
1r
#958
0r
#961
1r
#962
0r
#965
1r
#966
0r
#969
1r
#970
0r
#973
1r
#974
0r
#977
1r
#978
0r
#981
1r
#982
0r
#985
1r
#986
0r
#989
1r
#990
0r
#993
1r
#994
0r
#997
1r
#998
0r
#1001
1r
#1002
0r
#1005
1r
#1006
0r
#1009
1r
#1010
0r
#1013
1r
#1014
0r
#1017
1r
#1018
0r
#1021
1r
#1022
0r
