linux-kernel/tools/.Xil/Vivado-6100-CeRICT-RECIPE-0/hw_ila_data_1/zip_work/waveform.vcd
$date
        2019-Nov-21 14:29:35
$end
$version
        Vivado v2019.1.3 (64-bit)
$end
$timescale
        1ps
$end
$scope module dut $end
$var reg 15 " BRAM_PORTA_0_addr [14:0] $end
$var reg 1 1 BRAM_PORTA_0_clk $end
$var reg 32 2 BRAM_PORTA_0_din [31:0] $end
$var reg 32 R BRAM_PORTA_0_dout [31:0] $end
$var reg 1 r BRAM_PORTA_0_en $end
$var reg 1 s BRAM_PORTA_0_rst $end
$var reg 4 t BRAM_PORTA_0_we [3:0] $end
$var reg 1 x _TRIGGER $end
$var reg 1 y _WINDOW $end
$var reg 1 z _GAP $end
$upscope $end
$enddefinitions $end
#0
$dumpvars
b0 "
01
b10101011100010100110001100 2
b1111111111111111 R
1r
0s
b0 t
0x
1y
0z
$end
#1
0r
#4
1r
#5
0r
#8
1r
#9
0r
#12
1r
#13
0r
#16
1r
#17
0r
#20
1r
#21
0r
#24
1r
#25
0r
#28
1r
#29
0r
#32
1r
#33
0r
#36
1r
#37
0r
#40
1r
#41
0r
#44
1r
#45
0r
#48
1r
#49
0r
#52
1r
#53
0r
#56
1r
#57
0r
#60
1r
#61
0r
#64
1r
#65
0r
#68
1r
#69
0r
#72
1r
#73
0r
#76
1r
#77
0r
#80
1r
#81
0r
#84
1r
#85
0r
#88
1r
#89
0r
#92
1r
#93
0r
#96
1r
#97
0r
#100
1r
#101
0r
#104
1r
#105
0r
#108
1r
#109
0r
#112
1r
#113
0r
#116
1r
#117
0r
#120
1r
#121
0r
#124
1r
#125
0r
#128
1r
#129
0r
#132
1r
#133
0r
#136
1r
#137
0r
#140
1r
#141
0r
#144
1r
#145
0r
#148
1r
#149
0r
#152
1r
#153
0r
#156
1r
#157
0r
#160
1r
#161
0r
#164
1r
#165
0r
#168
1r
#169
0r
#172
1r
#173
0r
#176
1r
#177
0r
#180
1r
#181
0r
#184
1r
#185
0r
#188
1r
#189
0r
#192
1r
#193
0r
#196
1r
#197
0r
#200
1r
#201
0r
#204
1r
#205
0r
#208
1r
#209
0r
#212
1r
#213
0r
#216
1r
#217
0r
#220
1r
#221
0r
#224
1r
#225
0r
#228
1r
#229
0r
#232
1r
#233
0r
#236
1r
#237
0r
#240
1r
#241
0r
#244
1r
#245
0r
#248
1r
#249
0r
#252
1r
#253
0r
#256
1r
#257
0r
#260
1r
#261
0r
#264
1r
#265
0r
#268
1r
#269
0r
#272
1r
#273
0r
#276
1r
#277
0r
#280
1r
#281
0r
#284
1r
#285
0r
#288
1r
#289
0r
#292
1r
#293
0r
#296
1r
#297
0r
#300
1r
#301
0r
#304
1r
#305
0r
#308
1r
#309
0r
#312
1r
#313
0r
#316
1r
#317
0r
#320
1r
#321
0r
#324
1r
#325
0r
#328
1r
#329
0r
#332
1r
#333
0r
#336
1r
#337
0r
#340
1r
#341
0r
#344
1r
#345
0r
#348
1r
#349
0r
#352
1r
#353
0r
#356
1r
#357
0r
#360
1r
#361
0r
#364
1r
#365
0r
#368
1r
#369
0r
#372
1r
#373
0r
#376
1r
#377
0r
#380
1r
#381
0r
#384
1r
#385
0r
#388
1r
#389
0r
#392
1r
#393
0r
#396
1r
#397
0r
#400
1r
#401
0r
#404
1r
#405
0r
#408
1r
#409
0r
#412
1r
#413
0r
#416
1r
#417
0r
#420
1r
#421
0r
#424
1r
#425
0r
#428
1r
#429
0r
#432
1r
#433
0r
#436
1r
#437
0r
#440
1r
#441
0r
#444
1r
#445
0r
#448
1r
#449
0r
#452
1r
#453
0r
#456
1r
#457
0r
#460
1r
#461
0r
#464
1r
#465
0r
#468
1r
#469
0r
#472
1r
#473
0r
#476
1r
#477
0r
#480
1r
#481
0r
#484
1r
#485
0r
#488
1r
#489
0r
#492
1r
#493
0r
#496
1r
#497
0r
#500
1r
#501
0r
#504
1r
#505
0r
#508
1r
#509
0r
#512
1r
1x
#513
0r
#516
1r
#517
0r
#520
1r
#521
0r
#524
1r
#525
0r
#528
1r
#529
0r
#532
1r
#533
0r
#536
1r
#537
0r
#540
1r
#541
0r
#544
1r
#545
0r
#548
1r
#549
0r
#552
1r
#553
0r
#556
1r
#557
0r
#560
1r
#561
0r
#564
1r
#565
0r
#568
1r
#569
0r
#572
1r
#573
0r
#576
1r
#577
0r
#580
1r
#581
0r
#584
1r
#585
0r
#588
1r
#589
0r
#592
1r
#593
0r
#596
1r
#597
0r
#600
1r
#601
0r
#604
1r
#605
0r
#608
1r
#609
0r
#612
1r
#613
0r
#616
1r
#617
0r
#620
1r
#621
0r
#624
1r
#625
0r
#628
1r
#629
0r
#632
1r
#633
0r
#636
1r
#637
0r
#640
1r
#641
0r
#644
1r
#645
0r
#648
1r
#649
0r
#652
1r
#653
0r
#656
1r
#657
0r
#660
1r
#661
0r
#664
1r
#665
0r
#668
1r
#669
0r
#672
1r
#673
0r
#676
1r
#677
0r
#680
1r
#681
0r
#684
1r
#685
0r
#688
1r
#689
0r
#692
1r
#693
0r
#696
1r
#697
0r
#700
1r
#701
0r
#704
1r
#705
0r
#708
1r
#709
0r
#712
1r
#713
0r
#716
1r
#717
0r
#720
1r
#721
0r
#724
1r
#725
0r
#728
1r
#729
0r
#732
1r
#733
0r
#736
1r
#737
0r
#740
1r
#741
0r
#744
1r
#745
0r
#748
1r
#749
0r
#752
1r
#753
0r
#756
1r
#757
0r
#760
1r
#761
0r
#764
1r
#765
0r
#768
1r
#769
0r
#772
1r
#773
0r
#776
1r
#777
0r
#780
1r
#781
0r
#784
1r
#785
0r
#788
1r
#789
0r
#792
1r
#793
0r
#796
1r
#797
0r
#800
1r
#801
0r
#804
1r
#805
0r
#808
1r
#809
0r
#812
1r
#813
0r
#816
1r
#817
0r
#820
1r
#821
0r
#824
1r
#825
0r
#828
1r
#829
0r
#832
1r
#833
0r
#836
1r
#837
0r
#840
1r
#841
0r
#844
1r
#845
0r
#848
1r
#849
0r
#852
1r
#853
0r
#856
1r
#857
0r
#860
1r
#861
0r
#864
1r
#865
0r
#868
1r
#869
0r
#872
1r
#873
0r
#876
1r
#877
0r
#880
1r
#881
0r
#884
1r
#885
0r
#888
1r
#889
0r
#892
1r
#893
0r
#896
1r
#897
0r
#900
1r
#901
0r
#904
1r
#905
0r
#908
1r
#909
0r
#912
1r
#913
0r
#916
1r
#917
0r
#920
1r
#921
0r
#924
1r
#925
0r
#928
1r
#929
0r
#932
1r
#933
0r
#936
1r
#937
0r
#940
1r
#941
0r
#944
1r
#945
0r
#948
1r
#949
0r
#952
1r
#953
0r
#956
1r
#957
0r
#960
1r
#961
0r
#964
1r
#965
0r
#968
1r
#969
0r
#972
1r
#973
0r
#976
1r
#977
0r
#980
1r
#981
0r
#984
1r
#985
0r
#988
1r
#989
0r
#992
1r
#993
0r
#996
1r
#997
0r
#1000
1r
#1001
0r
#1004
1r
#1005
0r
#1008
1r
#1009
0r
#1012
1r
#1013
0r
#1016
1r
#1017
0r
#1020
1r
#1021
0r
